0 , 0 , 4 , 8 , 1382.6
0 , 0 , 4 , 8 , 1525.39
0 , 0.00106857 , 4 , 7.99786 , 1621.65
0 , 0.00427427 , 4 , 7.99145 , 1666.19
0 , 0.00747998 , 4 , 7.98504 , 1793.42
0 , 0.0128228 , 4 , 7.97435 , 1827.45
0 , 0.0203028 , 4 , 7.95939 , 1851.03
0 , 0.0277828 , 4 , 7.94443 , 1957.13
0 , 0.0373999 , 4 , 7.9252 , 1969.89
0 , 0.047017 , 4 , 7.90597 , 2065.11
0 , 0.0587712 , 4 , 7.88246 , 2066.91
0 , 0.0715941 , 4 , 7.85895 , 2151.09
0 , 0.0844169 , 4 , 7.83117 , 2141.78
0 , 0.0983083 , 4 , 7.80338 , 2214.77
0 , 0.1122 , 4 , 7.7756 , 2287.27
0 , 0.128228 , 4 , 7.74354 , 2266.19
0 , 0.144257 , 4 , 7.71149 , 2327.34
0 , 0.161354 , 4 , 7.67943 , 2387.92
0 , 0.178451 , 4 , 7.64524 , 2401.39
0 , 0.196617 , 4 , 7.6089 , 2409.11
0 , 0.213714 , 4 , 7.57257 , 2457.59
0 , 0.292788 , 4 , 7.41656 , -146.89
0 , 0.306679 , 4 , 7.38878 , 2444.13
0 , 0.323776 , 4 , 7.35458 , 2369.61
0 , 0.340873 , 4 , 7.31825 , 2418.31
0 , 0.359039 , 4 , 7.28406 , 2466.73
0 , 0.377205 , 4 , 7.24773 , 2421.84
0 , 0.396439 , 4 , 7.20926 , 2458.73
0 , 0.415673 , 4 , 7.17079 , 2541.1
0 , 0.434907 , 4 , 7.13019 , 2488.68
0 , 0.45521 , 4 , 7.09172 , 2518.7
0 , 0.475513 , 4 , 7.05111 , 2593.83
0 , 0.495816 , 4 , 7.01051 , 2580.68
0 , 0.516118 , 4 , 6.96776 , 2561.65
0 , 0.53749 , 4 , 6.92502 , 2583.27
0 , 0.558861 , 4 , 6.88228 , 2604.13
0 , 0.580232 , 4 , 6.83954 , 2624.22
0 , 0.601604 , 4 , 6.79679 , 2643.54
0 , 0.624044 , 4 , 6.75405 , 2615.94
0 , 0.646484 , 4 , 6.70917 , 2674.77
0 , 0.668924 , 4 , 6.66429 , 2645.24
0 , 0.691364 , 4 , 6.61941 , 2656.3
0 , 0.712735 , 4 , 6.57453 , 2666.56
0 , 0.735175 , 4 , 6.52965 , 2676.02
0 , 0.758683 , 4 , 6.48477 , 2638.51
0 , 0.781123 , 4 , 6.43775 , 2687.4
0 , 0.803563 , 4 , 6.39501 , 2694.79
0 , 0.827072 , 4 , 6.34799 , 2700.67
0 , 0.849512 , 4 , 6.30098 , 2659.55
0 , 0.871952 , 4 , 6.2561 , 2705.53
0 , 0.89546 , 4 , 6.21122 , 2663.14
0 , 0.9179 , 4 , 6.1642 , 2707.14
0 , 0.941408 , 4 , 6.11932 , 2709.28
0 , 0.964917 , 4 , 6.0723 , 2664.08
0 , 0.987357 , 4 , 6.02742 , 2705.97
0 , 1.0098 , 4 , 5.98254 , 2659.5
0 , 1.03331 , 4 , 5.93553 , 2653.25
0 , 1.05575 , 4 , 5.89065 , 2738.88
0 , 1.07925 , 4 , 5.84363 , 2648.19
0 , 1.10169 , 4 , 5.79661 , 2639.47
0 , 1.12413 , 4 , 5.75387 , 2722.98
0 , 1.1455 , 4 , 5.70899 , 2676.39
0 , 1.16901 , 4 , 5.66411 , 2670.4
0 , 1.19145 , 4 , 5.61923 , 2663.61
0 , 1.21282 , 4 , 5.57435 , 2656.02
0 , 1.2342 , 4 , 5.53161 , 2694.17
0 , 1.25664 , 4 , 5.48673 , 2643.61
0 , 1.27908 , 4 , 5.44399 , 2634.03
0 , 1.30045 , 4 , 5.39911 , 2669.48
0 , 1.32182 , 4 , 5.35636 , 2663.09
0 , 1.34426 , 4 , 5.31362 , 2609.78
0 , 1.36563 , 4 , 5.26874 , 2642.9
0 , 1.387 , 4 , 5.226 , 2634.19
0 , 1.40837 , 4 , 5.18325 , 2624.72
0 , 1.42974 , 4 , 5.14051 , 2614.48
0 , 1.45112 , 4 , 5.09777 , 2603.49
0 , 1.47249 , 4 , 5.05716 , 2592.09
0 , 1.49386 , 4 , 5.01442 , 2625.78
0 , 1.51416 , 4 , 4.97168 , 2571.13
0 , 1.53446 , 4 , 4.93107 , 2603.65
0 , 1.55477 , 4 , 4.89047 , 2594.05
0 , 1.57614 , 4 , 4.84772 , 2537.19
0 , 1.59644 , 4 , 4.80712 , 2567.51
0 , 1.61674 , 4 , 4.76651 , 2555.69
0 , 1.63705 , 4 , 4.72591 , 2543.16
0 , 1.65735 , 4 , 4.6853 , 2529.9
0 , 1.67765 , 4 , 4.64683 , 2562.45
0 , 1.69689 , 4 , 4.60623 , 2506.38
0 , 1.71719 , 4 , 4.56562 , 2490.98
0 , 1.73642 , 4 , 4.52715 , 2521.39
0 , 1.75566 , 4 , 4.48869 , 2509.72
0 , 1.77596 , 4 , 4.44808 , 2450.83
0 , 1.79519 , 4 , 4.41175 , 2525.68
0 , 1.81443 , 4 , 4.37114 , 2424.01
0 , 1.83259 , 4 , 4.33481 , 2497.5
0 , 1.85183 , 4 , 4.29634 , 2440.99
0 , 1.87106 , 4 , 4.25787 , 2425.2
0 , 1.8903 , 4 , 4.22154 , 2455.26
0 , 1.90846 , 4 , 4.18308 , 2396.73
0 , 1.92663 , 4 , 4.14674 , 2425.46
0 , 1.94586 , 4 , 4.10828 , 2365.6
0 , 1.9651 , 4 , 4.07194 , 2392.99
0 , 1.98219 , 4 , 4.03561 , 2378.33
0 , 2.00143 , 4 , 3.99928 , 2363.02
0 , 2.01959 , 4 , 3.96081 , 2300.53
0 , 2.03776 , 4 , 3.92448 , 2325.29
0 , 2.05592 , 4 , 3.89029 , 2354.54
0 , 2.07409 , 4 , 3.85396 , 2249.07
0 , 2.09226 , 4 , 3.81549 , 2271.55
0 , 2.11042 , 4 , 3.77916 , 2252.31
0 , 2.12752 , 4 , 3.74496 , 2278.96
0 , 2.14568 , 4 , 3.70863 , 2217.07
0 , 2.16385 , 4 , 3.6723 , 2195.93
0 , 2.18202 , 4 , 3.63811 , 2174.5
0 , 2.19911 , 4 , 3.60177 , 2198.27
0 , 2.21728 , 4 , 3.56758 , 2180.36
0 , 2.23438 , 4 , 3.53125 , 2115.29
0 , 2.25147 , 4 , 3.49705 , 2137.52
0 , 2.26857 , 4 , 3.46286 , 2117.74
0 , 2.28567 , 4 , 3.42867 , 2097.35
0 , 2.30383 , 4 , 3.39447 , 2030.18
0 , 2.32093 , 4 , 3.35814 , 2049.59
0 , 2.33803 , 4 , 3.32395 , 2027.33
0 , 2.35512 , 4 , 3.28975 , 2004.46
0 , 2.37222 , 4 , 3.25556 , 1980.98
0 , 2.38932 , 4 , 3.22136 , 1956.88
0 , 2.40748 , 4 , 3.18717 , 1932.18
0 , 2.42458 , 4 , 3.15298 , 1860.7
0 , 2.44168 , 4 , 3.11664 , 1875.81
0 , 2.45878 , 4 , 3.08245 , 1849.23
0 , 2.47587 , 4 , 3.04826 , 1822.05
0 , 2.49297 , 4 , 3.01406 , 1794.26
0 , 2.51113 , 4 , 2.97773 , 1719.32
0 , 2.52823 , 4 , 2.94354 , 1731.67
0 , 2.54533 , 4 , 2.90934 , 1702
0 , 2.56243 , 4 , 2.87515 , 1671.73
0 , 2.57952 , 4 , 2.84095 , 1640.85
0 , 2.59662 , 4 , 2.80676 , 1609.35
0 , 2.61372 , 4 , 2.77257 , 1577.25
0 , 2.63081 , 4 , 2.73837 , 1544.54
0 , 2.64791 , 4 , 2.70418 , 1511.21
0 , 2.66501 , 4 , 2.66998 , 1477.28
0 , 2.68317 , 4 , 2.63579 , 1442.73
0 , 2.6992 , 4 , 2.60159 , 1407.58
0 , 2.71737 , 4 , 2.56526 , 1325.28
0 , 2.73447 , 4 , 2.53107 , 1330.26
0 , 2.75156 , 4 , 2.49687 , 1293.24
0 , 2.76866 , 4 , 2.46268 , 1255.6
0 , 2.78683 , 4 , 2.42849 , 1217.36
0 , 2.80392 , 4 , 2.39215 , 1131.96
0 , 2.82102 , 4 , 2.35796 , 1133.86
0 , 2.83919 , 4 , 2.32163 , 1047.21
0 , 2.85628 , 4 , 2.28744 , 1047.85
0 , 2.87445 , 4 , 2.2511 , 959.935
0 , 2.89261 , 4 , 2.21477 , 912.776
0 , 2.90971 , 4 , 2.18058 , 911.506
0 , 2.92681 , 4 , 2.14638 , 868.226
0 , 2.9439 , 4 , 2.11219 , 824.335
0 , 2.961 , 4 , 2.078 , 779.834
0 , 2.9781 , 4 , 2.0438 , 734.723
0 , 2.9952 , 4 , 2.00961 , 689.001
0 , 3.01122 , 4 , 1.97755 , 689.207
0 , 3.02725 , 4 , 1.94763 , 693.978
0 , 3.04221 , 4 , 1.91557 , 610.277
0 , 3.05717 , 4 , 1.88565 , 613.942
0 , 3.07213 , 4 , 1.85573 , 575.673
0 , 3.08602 , 4 , 1.83009 , 629.946
0 , 3.09885 , 4 , 1.80231 , 554.422
0 , 3.11167 , 4 , 1.77666 , 566.341
0 , 3.12449 , 4 , 1.75101 , 536.401
0 , 3.13625 , 4 , 1.72751 , 552.542
0 , 3.148 , 4 , 1.704 , 526.863
0 , 3.15976 , 4 , 1.68263 , 501.133
0 , 3.17044 , 4 , 1.65912 , 520.822
0 , 3.18006 , 4 , 1.63988 , 545.598
0 , 3.19074 , 4 , 1.61851 , 482.091
0 , 3.20036 , 4 , 1.59928 , 506.142
0 , 3.20891 , 4 , 1.58218 , 534.988
0 , 3.21853 , 4 , 1.56295 , 475.589
0 , 3.22708 , 4 , 1.54585 , 503.786
0 , 3.23562 , 4 , 1.52875 , 490.277
0 , 3.24417 , 4 , 1.51165 , 476.463
0 , 3.25165 , 4 , 1.49669 , 508.882
0 , 3.2602 , 4 , 1.4796 , 453.096
0 , 3.26875 , 4 , 1.46464 , 484.942
0 , 3.27516 , 4 , 1.44968 , 475.122
0 , 3.28264 , 4 , 1.43472 , 465.034
0 , 3.29012 , 4 , 1.41976 , 454.679
0 , 3.2976 , 4 , 1.4048 , 444.057
0 , 3.30401 , 4 , 1.39198 , 479.707
0 , 3.31149 , 4 , 1.37702 , 427.189
0 , 3.31684 , 4 , 1.36633 , 508.88
0 , 3.32432 , 4 , 1.35137 , 414.504
0 , 3.32966 , 4 , 1.34068 , 495.737
0 , 3.33607 , 4 , 1.32786 , 447.441
0 , 3.34248 , 4 , 1.31504 , 440.317
0 , 3.34889 , 4 , 1.30222 , 432.963
0 , 3.35424 , 4 , 1.29153 , 471.919
0 , 3.35958 , 4 , 1.28084 , 469.284
0 , 3.36599 , 4 , 1.26802 , 419.92
0 , 3.37133 , 4 , 1.25734 , 458.265
0 , 3.37667 , 4 , 1.24665 , 455.02
0 , 3.38309 , 4 , 1.23383 , 405.045
0 , 3.38843 , 4 , 1.22314 , 442.78
0 , 3.39377 , 4 , 1.21459 , 485.462
0 , 3.39911 , 4 , 1.20391 , 393.885
0 , 3.40446 , 4 , 1.19108 , 430.716
0 , 3.4098 , 4 , 1.1804 , 426.288
0 , 3.41407 , 4 , 1.17185 , 468.207
0 , 3.41942 , 4 , 1.16116 , 422.035
0 , 3.42476 , 4 , 1.15262 , 463.611
0 , 3.4301 , 4 , 1.13979 , 370.558
0 , 3.43438 , 4 , 1.13124 , 453.153
0 , 3.43972 , 4 , 1.12056 , 406.256
0 , 3.44399 , 4 , 1.11201 , 447.107
0 , 3.44934 , 4 , 1.10346 , 400.236
0 , 3.45361 , 4 , 1.09278 , 440.413
0 , 3.45895 , 4 , 1.08423 , 393.199
0 , 3.46323 , 4 , 1.07354 , 433.032
0 , 3.46857 , 4 , 1.06286 , 385.105
0 , 3.47285 , 4 , 1.05431 , 424.926
0 , 3.47712 , 4 , 1.04576 , 423.194
0 , 3.48246 , 4 , 1.03721 , 421.31
0 , 3.48674 , 4 , 1.02653 , 372.735
0 , 3.49101 , 4 , 1.01798 , 411.907
0 , 3.49529 , 4 , 1.00943 , 409.527
0 , 3.49956 , 4 , 1.00088 , 406.994
0 , 3.50383 , 4 , 0.992331 , 404.308
0 , 3.50811 , 4 , 0.983782 , 401.47
0 , 3.51238 , 4 , 0.975234 , 398.479
0 , 3.51666 , 4 , 0.966685 , 395.336
0 , 3.52093 , 4 , 0.958137 , 392.04
0 , 3.52521 , 4 , 0.949588 , 388.592
0 , 3.52948 , 4 , 0.94104 , 384.991
0 , 3.53375 , 4 , 0.932491 , 381.237
0 , 3.53803 , 4 , 0.923943 , 377.331
0 , 3.5423 , 4 , 0.915394 , 373.272
0 , 3.54658 , 4 , 0.906845 , 369.06
0 , 3.55085 , 4 , 0.898297 , 364.696
0 , 3.55406 , 4 , 0.891885 , 406.718
0 , 3.55833 , 4 , 0.883337 , 360.686
0 , 3.56261 , 4 , 0.876926 , 356.272
0 , 3.56581 , 4 , 0.868377 , 397.543
0 , 3.56902 , 4 , 0.861966 , 397.63
0 , 3.57329 , 4 , 0.853417 , 351.064
0 , 3.5765 , 4 , 0.847006 , 392.285
0 , 3.58077 , 4 , 0.838457 , 345.452
0 , 3.58505 , 4 , 0.832046 , 340.237
0 , 3.58825 , 4 , 0.823497 , 380.706
0 , 3.59146 , 4 , 0.817086 , 379.992
0 , 3.59466 , 4 , 0.810674 , 379.164
0 , 3.59787 , 4 , 0.804263 , 378.221
0 , 3.60214 , 4 , 0.795714 , 330.625
0 , 3.60535 , 4 , 0.789303 , 370.816
0 , 3.60855 , 4 , 0.782892 , 369.491
0 , 3.61176 , 4 , 0.77648 , 368.052
0 , 3.61497 , 4 , 0.770069 , 366.499
0 , 3.61817 , 4 , 0.763657 , 364.831
0 , 3.62138 , 4 , 0.757246 , 363.049
0 , 3.62458 , 4 , 0.750835 , 361.152
0 , 3.62779 , 4 , 0.744423 , 359.141
0 , 3.63099 , 4 , 0.738012 , 357.016
0 , 3.6342 , 4 , 0.7316 , 354.776
0 , 3.63634 , 4 , 0.727326 , 398.96
0 , 3.64061 , 4 , 0.718777 , 308.59
0 , 3.64275 , 4 , 0.714503 , 393.946
0 , 3.64595 , 4 , 0.708092 , 349.886
0 , 3.64916 , 4 , 0.70168 , 347.112
0 , 3.6513 , 4 , 0.697406 , 390.761
0 , 3.6545 , 4 , 0.690995 , 346.396
0 , 3.65771 , 4 , 0.684583 , 343.317
0 , 3.65985 , 4 , 0.680309 , 386.661
0 , 3.66198 , 4 , 0.676035 , 388.529
0 , 3.66519 , 4 , 0.669623 , 343.783
0 , 3.66733 , 4 , 0.665349 , 386.86
0 , 3.67053 , 4 , 0.658938 , 341.923
0 , 3.67374 , 4 , 0.652526 , 338.271
0 , 3.67587 , 4 , 0.648252 , 381.044
0 , 3.67908 , 4 , 0.641841 , 335.801
0 , 3.68122 , 4 , 0.637566 , 378.383
0 , 3.68335 , 4 , 0.633292 , 379.487
0 , 3.68656 , 4 , 0.626881 , 333.978
0 , 3.6887 , 4 , 0.622606 , 376.292
0 , 3.6919 , 4 , 0.616195 , 330.592
0 , 3.69511 , 4 , 0.609784 , 326.178
0 , 3.69725 , 4 , 0.605509 , 368.187
0 , 3.70045 , 4 , 0.599098 , 322.182
0 , 3.70259 , 4 , 0.594824 , 364
0 , 3.70473 , 4 , 0.590549 , 364.342
0 , 3.70793 , 4 , 0.584138 , 318.07
0 , 3.71007 , 4 , 0.579864 , 359.621
0 , 3.71221 , 4 , 0.575589 , 359.696
0 , 3.71434 , 4 , 0.571315 , 359.695
0 , 3.71755 , 4 , 0.564904 , 313.079
0 , 3.71969 , 4 , 0.560629 , 354.287
0 , 3.72182 , 4 , 0.556355 , 354.019
0 , 3.72503 , 4 , 0.549944 , 307.136
0 , 3.72717 , 4 , 0.545669 , 348.077
0 , 3.7293 , 4 , 0.541395 , 347.542
0 , 3.73144 , 4 , 0.537121 , 346.93
0 , 3.73465 , 4 , 0.530709 , 299.704
0 , 3.73678 , 4 , 0.526435 , 340.302
0 , 3.73892 , 4 , 0.522161 , 339.423
0 , 3.74106 , 4 , 0.517887 , 338.468
0 , 3.74319 , 4 , 0.513612 , 337.437
0 , 3.74533 , 4 , 0.509338 , 336.329
0 , 3.74747 , 4 , 0.505064 , 335.145
0 , 3.74961 , 4 , 0.50079 , 333.885
0 , 3.75174 , 4 , 0.496515 , 332.548
0 , 3.75388 , 4 , 0.492241 , 331.135
0 , 3.75602 , 4 , 0.487967 , 329.646
0 , 3.75815 , 4 , 0.483692 , 328.081
0 , 3.76029 , 4 , 0.479418 , 326.439
0 , 3.76243 , 4 , 0.475144 , 324.721
0 , 3.76457 , 4 , 0.47087 , 322.927
0 , 3.7667 , 4 , 0.466595 , 321.056
0 , 3.76884 , 4 , 0.462321 , 319.109
0 , 3.76991 , 4 , 0.460184 , 363.624
0 , 3.77205 , 4 , 0.45591 , 320.162
0 , 3.77418 , 4 , 0.451635 , 318.025
0 , 3.77632 , 4 , 0.447361 , 315.811
0 , 3.77846 , 4 , 0.443087 , 313.521
0 , 3.78059 , 4 , 0.438813 , 311.154
0 , 3.78166 , 4 , 0.436676 , 355.249
0 , 3.7838 , 4 , 0.432401 , 311.368
0 , 3.78594 , 4 , 0.428127 , 308.811
0 , 3.78807 , 4 , 0.42599 , 352.715
0 , 3.79021 , 4 , 0.419578 , 262.105
0 , 3.79128 , 4 , 0.417441 , 347.258
0 , 3.79342 , 4 , 0.413167 , 303.033
0 , 3.79449 , 4 , 0.41103 , 346.67
0 , 3.79662 , 4 , 0.406756 , 302.331
0 , 3.79876 , 4 , 0.402481 , 299.316
0 , 3.79983 , 4 , 0.400344 , 342.763
0 , 3.80197 , 4 , 0.39607 , 298.233
0 , 3.80303 , 4 , 0.393933 , 341.566
0 , 3.8041 , 4 , 0.391796 , 343.459
0 , 3.80624 , 4 , 0.387521 , 298.777
0 , 3.80838 , 4 , 0.383247 , 295.419
0 , 3.81051 , 4 , 0.378973 , 291.984
0 , 3.81158 , 4 , 0.376836 , 335.011
0 , 3.81265 , 4 , 0.374699 , 336.6
0 , 3.81479 , 4 , 0.370424 , 291.612
0 , 3.81586 , 4 , 0.368287 , 334.487
0 , 3.81799 , 4 , 0.364013 , 289.385
0 , 3.82013 , 4 , 0.359739 , 285.607
0 , 3.8212 , 4 , 0.357601 , 328.291
0 , 3.82334 , 4 , 0.353327 , 282.998
0 , 3.8244 , 4 , 0.35119 , 325.567
0 , 3.82654 , 4 , 0.346916 , 280.16
0 , 3.82868 , 4 , 0.344779 , 322.615
0 , 3.82868 , 4 , 0.342642 , 323.631
0 , 3.83082 , 4 , 0.338367 , 278.072
0 , 3.83188 , 4 , 0.33623 , 320.374
0 , 3.83295 , 4 , 0.334093 , 321.238
0 , 3.83509 , 4 , 0.329819 , 275.525
0 , 3.83616 , 4 , 0.327682 , 317.675
0 , 3.83723 , 4 , 0.325544 , 318.387
0 , 3.83936 , 4 , 0.32127 , 272.522
0 , 3.84043 , 4 , 0.319133 , 314.519
0 , 3.8415 , 4 , 0.316996 , 315.077
0 , 3.84257 , 4 , 0.314859 , 315.598
0 , 3.84471 , 4 , 0.310584 , 269.542
0 , 3.84578 , 4 , 0.308447 , 311.349
0 , 3.84684 , 4 , 0.30631 , 311.717
0 , 3.84791 , 4 , 0.304173 , 312.046
0 , 3.84898 , 4 , 0.302036 , 312.338
0 , 3.85005 , 4 , 0.299899 , 312.592
0 , 3.85112 , 4 , 0.297762 , 312.807
0 , 3.85326 , 4 , 0.293487 , 266.446
0 , 3.85432 , 4 , 0.29135 , 307.947
0 , 3.85539 , 4 , 0.289213 , 308.01
0 , 3.85753 , 4 , 0.284939 , 261.497
0 , 3.8586 , 4 , 0.282802 , 302.845
0 , 3.8586 , 4 , 0.282802 , 349.294
0 , 3.85967 , 4 , 0.280665 , 307.803
0 , 3.8618 , 4 , 0.27639 , 261.137
0 , 3.86287 , 4 , 0.274253 , 302.333
0 , 3.86394 , 4 , 0.272116 , 302.091
0 , 3.86501 , 4 , 0.269979 , 301.81
0 , 3.86715 , 4 , 0.265705 , 254.954
0 , 3.86715 , 4 , 0.265705 , 342.497
0 , 3.86822 , 4 , 0.263567 , 300.702
0 , 3.87035 , 4 , 0.259293 , 253.73
0 , 3.87142 , 4 , 0.257156 , 294.621
0 , 3.87249 , 4 , 0.255019 , 294.074
0 , 3.87356 , 4 , 0.252882 , 293.488
0 , 3.87463 , 4 , 0.250745 , 292.864
0 , 3.8757 , 4 , 0.248608 , 292.202
0 , 3.8757 , 4 , 0.248608 , 338.04
0 , 3.87783 , 4 , 0.24647 , 249.771
0 , 3.8789 , 4 , 0.242196 , 290.064
0 , 3.8789 , 4 , 0.242196 , 335.787
0 , 3.87997 , 4 , 0.240059 , 293.572
0 , 3.88104 , 4 , 0.237922 , 292.719
0 , 3.88211 , 4 , 0.235785 , 291.828
0 , 3.88318 , 4 , 0.233648 , 290.899
0 , 3.88424 , 4 , 0.23151 , 289.932
0 , 3.88531 , 4 , 0.229373 , 288.927
0 , 3.88638 , 4 , 0.227236 , 287.883
0 , 3.88745 , 4 , 0.225099 , 286.802
0 , 3.88852 , 4 , 0.225099 , 286.051
0 , 3.88852 , 4 , 0.222962 , 331.1
0 , 3.88852 , 4 , 0.222962 , 335.08
0 , 3.88959 , 4 , 0.220825 , 292.521
0 , 3.89066 , 4 , 0.218688 , 291.325
0 , 3.89172 , 4 , 0.21655 , 290.091
0 , 3.89279 , 4 , 0.214413 , 288.819
0 , 3.89279 , 4 , 0.214413 , 334.046
0 , 3.89386 , 4 , 0.212276 , 291.335
0 , 3.896 , 4 , 0.208002 , 243.449
0 , 3.89707 , 4 , 0.205865 , 283.424
0 , 3.89707 , 4 , 0.205865 , 328.499
0 , 3.89814 , 4 , 0.203728 , 285.636
0 , 3.89814 , 4 , 0.203728 , 330.672
0 , 3.90027 , 4 , 0.199453 , 241.233
0 , 3.90027 , 4 , 0.199453 , 327.594
0 , 3.90134 , 4 , 0.197316 , 284.616
0 , 3.90134 , 4 , 0.197316 , 329.538
0 , 3.90241 , 4 , 0.195179 , 286.522
0 , 3.90241 , 4 , 0.195179 , 331.406
0 , 3.90348 , 4 , 0.193042 , 288.352
0 , 3.90455 , 4 , 0.190905 , 286.66
0 , 3.90562 , 4 , 0.188768 , 284.93
0 , 3.90562 , 4 , 0.188768 , 329.699
0 , 3.90668 , 4 , 0.186631 , 286.531
0 , 3.90775 , 4 , 0.184493 , 284.724
0 , 3.90882 , 4 , 0.182356 , 282.88
0 , 3.90882 , 4 , 0.182356 , 327.535
0 , 3.90989 , 4 , 0.180219 , 284.252
0 , 3.90989 , 4 , 0.180219 , 328.869
0 , 3.91203 , 4 , 0.175945 , 239.01
0 , 3.9131 , 4 , 0.173808 , 278.413
0 , 3.91416 , 4 , 0.171671 , 276.378
0 , 3.91416 , 4 , 0.171671 , 320.842
0 , 3.91523 , 4 , 0.169533 , 277.369
0 , 3.91737 , 4 , 0.165259 , 228.719
0 , 3.91737 , 4 , 0.165259 , 314.47
0 , 3.91844 , 4 , 0.163122 , 270.881
0 , 3.91844 , 4 , 0.163122 , 315.193
0 , 3.91951 , 4 , 0.160985 , 271.567
0 , 3.92058 , 4 , 0.158848 , 269.303
0 , 3.92164 , 4 , 0.156711 , 267
0 , 3.92164 , 4 , 0.156711 , 311.198
0 , 3.92271 , 4 , 0.154574 , 267.457
0 , 3.92271 , 4 , 0.154574 , 311.617
0 , 3.92378 , 4 , 0.152436 , 267.837
0 , 3.92378 , 4 , 0.152436 , 311.959
0 , 3.92485 , 4 , 0.150299 , 268.142
0 , 3.92592 , 4 , 0.148162 , 265.687
0 , 3.92592 , 4 , 0.148162 , 309.732
0 , 3.92699 , 4 , 0.146025 , 265.838
0 , 3.92699 , 4 , 0.146025 , 309.845
0 , 3.92806 , 4 , 0.143888 , 265.913
0 , 3.92806 , 4 , 0.143888 , 309.882
0 , 3.92806 , 4 , 0.143888 , 312.45
0 , 3.92806 , 4 , 0.143888 , 315.019
0 , 3.92912 , 4 , 0.141751 , 271.049
0 , 3.93019 , 4 , 0.139614 , 268.441
0 , 3.93019 , 4 , 0.139614 , 312.334
0 , 3.93126 , 4 , 0.137476 , 268.288
0 , 3.93126 , 4 , 0.137476 , 312.142
0 , 3.93126 , 4 , 0.137476 , 314.596
0 , 3.93126 , 4 , 0.137476 , 317.05
0 , 3.93126 , 4 , 0.137476 , 319.504
0 , 3.93126 , 4 , 0.137476 , 321.958
0 , 3.93126 , 4 , 0.137476 , 324.411
0 , 3.93126 , 4 , 0.137476 , 326.865
0 , 3.93126 , 4 , 0.137476 , 329.319
0 , 3.93126 , 4 , 0.137476 , 331.773
0 , 3.93126 , 4 , 0.137476 , 334.227
0 , 3.93126 , 4 , 0.137476 , 336.681
0 , 3.93126 , 4 , 0.137476 , 339.134
0 , 3.93126 , 4 , 0.137476 , 341.588
0 , 3.93126 , 4 , 0.137476 , 344.042
0 , 3.93233 , 4 , 0.135339 , 299.958
0 , 3.93233 , 4 , 0.135339 , 343.774
0 , 3.9334 , 4 , 0.133202 , 299.652
0 , 3.9334 , 4 , 0.133202 , 343.43
0 , 3.93447 , 4 , 0.131065 , 299.269
0 , 3.93554 , 4 , 0.128928 , 296.471
0 , 3.93554 , 4 , 0.128928 , 340.173
0 , 3.9366 , 4 , 0.126791 , 295.936
0 , 3.93767 , 4 , 0.124654 , 293.061
0 , 3.93874 , 4 , 0.122517 , 290.149
0 , 3.93874 , 4 , 0.122517 , 333.736
0 , 3.93981 , 4 , 0.120379 , 289.385
0 , 3.94088 , 4 , 0.118242 , 286.396
0 , 3.94195 , 4 , 0.116105 , 283.369
0 , 3.94302 , 4 , 0.113968 , 280.303
0 , 3.94408 , 4 , 0.111831 , 277.2
0 , 3.94408 , 4 , 0.111831 , 320.597
0 , 3.94515 , 4 , 0.109694 , 276.055
0 , 3.94622 , 4 , 0.107557 , 272.875
0 , 3.94729 , 4 , 0.105419 , 269.657
0 , 3.94836 , 4 , 0.103282 , 266.401
0 , 3.94836 , 4 , 0.103282 , 309.645
0 , 3.94836 , 4 , 0.103282 , 311.489
0 , 3.94943 , 4 , 0.101145 , 266.794
0 , 3.94943 , 4 , 0.101145 , 310
0 , 3.9505 , 4 , 0.099008 , 265.267
0 , 3.95156 , 4 , 0.0968709 , 261.897
0 , 3.95156 , 4 , 0.0968709 , 305.026
0 , 3.95263 , 4 , 0.0947337 , 260.217
0 , 3.95263 , 4 , 0.0947337 , 303.309
0 , 3.9537 , 4 , 0.0925966 , 258.461
0 , 3.9537 , 4 , 0.0925966 , 301.515
0 , 3.95477 , 4 , 0.0904595 , 256.629
0 , 3.95584 , 4 , 0.0883223 , 253.106
0 , 3.95584 , 4 , 0.0883223 , 296.083
0 , 3.95691 , 4 , 0.0861852 , 251.122
0 , 3.95691 , 4 , 0.0861852 , 294.061
0 , 3.95691 , 4 , 0.0861852 , 295.599
0 , 3.95798 , 4 , 0.0840481 , 250.599
0 , 3.95798 , 4 , 0.0840481 , 293.5
0 , 3.95798 , 4 , 0.0840481 , 295
0 , 3.95798 , 4 , 0.0840481 , 296.5
0 , 3.95798 , 4 , 0.0840481 , 298
0 , 3.95798 , 4 , 0.0840481 , 299.501
0 , 3.95798 , 4 , 0.0840481 , 301.001
0 , 3.95798 , 4 , 0.0840481 , 302.501
0 , 3.95798 , 4 , 0.0840481 , 304.001
0 , 3.95798 , 4 , 0.0840481 , 305.501
0 , 3.95798 , 4 , 0.0840481 , 307.001
0 , 3.95798 , 4 , 0.0840481 , 308.502
0 , 3.95798 , 4 , 0.0840481 , 310.002
0 , 3.95798 , 4 , 0.0840481 , 311.502
0 , 3.95798 , 4 , 0.0840481 , 313.002
0 , 3.95798 , 4 , 0.0840481 , 314.502
0 , 3.95798 , 4 , 0.0840481 , 316.003
0 , 3.95798 , 4 , 0.0840481 , 317.503
0 , 3.95798 , 4 , 0.0840481 , 319.003
0 , 3.95798 , 4 , 0.0840481 , 320.503
0 , 3.95798 , 4 , 0.0840481 , 322.003
0 , 3.95798 , 4 , 0.0840481 , 323.504
0 , 3.95798 , 4 , 0.0840481 , 325.004
0 , 3.95798 , 4 , 0.0840481 , 326.504
0 , 3.95798 , 4 , 0.0840481 , 328.004
0 , 3.95798 , 4 , 0.0840481 , 329.504
0 , 3.95798 , 4 , 0.0840481 , 331.005
0 , 3.95798 , 4 , 0.0840481 , 332.505
0 , 3.95798 , 4 , 0.0840481 , 334.005
0 , 3.95798 , 4 , 0.0840481 , 335.505
0 , 3.95798 , 4 , 0.0840481 , 337.005
0 , 3.95798 , 4 , 0.0840481 , 338.505
0 , 3.95798 , 4 , 0.0840481 , 340.006
0 , 3.95798 , 4 , 0.0840481 , 341.506
0 , 3.95798 , 4 , 0.0840481 , 343.006
0 , 3.95798 , 4 , 0.0840481 , 344.506
0 , 3.95904 , 4 , 0.0819109 , 299.468
0 , 3.96011 , 4 , 0.0797738 , 295.793
0 , 3.96118 , 4 , 0.0776366 , 292.079
0 , 3.96118 , 4 , 0.0776366 , 334.865
0 , 3.96225 , 4 , 0.0754995 , 289.713
0 , 3.96332 , 4 , 0.0733624 , 285.923
0 , 3.96332 , 4 , 0.0733624 , 328.633
0 , 3.96439 , 4 , 0.0712252 , 283.404
0 , 3.96546 , 4 , 0.0690881 , 279.538
0 , 3.96546 , 4 , 0.0690881 , 322.172
0 , 3.96652 , 4 , 0.066951 , 276.867
0 , 3.96759 , 4 , 0.0648138 , 272.924
0 , 3.96866 , 4 , 0.0626767 , 268.943
0 , 3.96866 , 4 , 0.0626767 , 311.462
0 , 3.96973 , 4 , 0.0605396 , 266.043
0 , 3.96973 , 4 , 0.0605396 , 308.524
0 , 3.9708 , 4 , 0.0584024 , 263.067
0 , 3.97187 , 4 , 0.0562653 , 258.972
0 , 3.97294 , 4 , 0.0541281 , 254.838
0 , 3.97294 , 4 , 0.0541281 , 297.205
0 , 3.974 , 4 , 0.051991 , 251.633
0 , 3.974 , 4 , 0.051991 , 293.961
0 , 3.974 , 4 , 0.051991 , 294.889
0 , 3.97507 , 4 , 0.0498539 , 249.279
0 , 3.97507 , 4 , 0.0498539 , 291.57
0 , 3.97507 , 4 , 0.0498539 , 292.459
0 , 3.97507 , 4 , 0.0498539 , 293.349
0 , 3.97507 , 4 , 0.0498539 , 294.239
0 , 3.97507 , 4 , 0.0498539 , 295.129
0 , 3.97507 , 4 , 0.0498539 , 296.019
0 , 3.97507 , 4 , 0.0498539 , 296.909
0 , 3.97507 , 4 , 0.0498539 , 297.798
0 , 3.97507 , 4 , 0.0498539 , 298.688
0 , 3.97507 , 4 , 0.0498539 , 299.578
0 , 3.97507 , 4 , 0.0498539 , 300.468
0 , 3.97507 , 4 , 0.0498539 , 301.358
0 , 3.97507 , 4 , 0.0498539 , 302.248
0 , 3.97507 , 4 , 0.0498539 , 303.138
0 , 3.97507 , 4 , 0.0498539 , 304.027
0 , 3.97507 , 4 , 0.0498539 , 304.917
0 , 3.97507 , 4 , 0.0498539 , 305.807
0 , 3.97507 , 4 , 0.0498539 , 306.697
0 , 3.97507 , 4 , 0.0498539 , 307.587
0 , 3.97507 , 4 , 0.0498539 , 308.477
0 , 3.97507 , 4 , 0.0498539 , 309.367
0 , 3.97507 , 4 , 0.0498539 , 310.256
0 , 3.97507 , 4 , 0.0498539 , 311.146
0 , 3.97507 , 4 , 0.0498539 , 312.036
0 , 3.97507 , 4 , 0.0498539 , 312.926
0 , 3.97507 , 4 , 0.0498539 , 313.816
0 , 3.97507 , 4 , 0.0498539 , 314.706
0 , 3.97507 , 4 , 0.0498539 , 315.596
0 , 3.97507 , 4 , 0.0498539 , 316.485
0 , 3.97507 , 4 , 0.0498539 , 317.375
0 , 3.97507 , 4 , 0.0498539 , 318.265
0 , 3.97507 , 4 , 0.0498539 , 319.155
0 , 3.97507 , 4 , 0.0498539 , 320.045
0 , 3.97507 , 4 , 0.0498539 , 320.935
0 , 3.97507 , 4 , 0.0498539 , 321.824
0 , 3.97507 , 4 , 0.0498539 , 322.714
0 , 3.97507 , 4 , 0.0498539 , 323.604
0 , 3.97507 , 4 , 0.0498539 , 324.494
0 , 3.97507 , 4 , 0.0498539 , 325.384
0 , 3.97507 , 4 , 0.0498539 , 326.274
0 , 3.97507 , 4 , 0.0498539 , 327.164
0 , 3.97507 , 4 , 0.0498539 , 328.053
0 , 3.97507 , 4 , 0.0498539 , 328.943
0 , 3.97507 , 4 , 0.0498539 , 329.833
0 , 3.97507 , 4 , 0.0498539 , 330.723
0 , 3.97507 , 4 , 0.0498539 , 331.613
0 , 3.97507 , 4 , 0.0498539 , 332.503
0 , 3.97507 , 4 , 0.0498539 , 333.393
0 , 3.97507 , 4 , 0.0498539 , 334.282
0 , 3.97507 , 4 , 0.0498539 , 335.172
0 , 3.97507 , 4 , 0.0498539 , 336.062
0 , 3.97507 , 4 , 0.0498539 , 336.952
0 , 3.97507 , 4 , 0.0498539 , 337.842
0 , 3.97507 , 4 , 0.0498539 , 338.732
0 , 3.97507 , 4 , 0.0498539 , 339.622
0 , 3.97507 , 4 , 0.0498539 , 340.511
0 , 3.97507 , 4 , 0.0498539 , 341.401
0 , 3.97507 , 4 , 0.0498539 , 342.291
0 , 3.97507 , 4 , 0.0498539 , 343.181
0 , 3.97507 , 4 , 0.0498539 , 344.071
0 , 3.97507 , 4 , 0.0498539 , 344.961
0 , 3.97507 , 4 , 0.0498539 , 345.85
0 , 3.97507 , 4 , 0.0498539 , 346.74
0 , 3.97507 , 4 , 0.0498539 , 347.63
0 , 3.97507 , 4 , 0.0498539 , 348.52
0 , 3.97507 , 4 , 0.0498539 , 349.41
0 , 3.97507 , 4 , 0.0498539 , 350.3
0 , 3.97507 , 4 , 0.0498539 , 351.19
0 , 3.97507 , 4 , 0.0498539 , 352.079
0 , 3.97507 , 4 , 0.0498539 , 352.969
0 , 3.97507 , 4 , 0.0498539 , 353.859
0 , 3.97507 , 4 , 0.0498539 , 354.749
0 , 3.97507 , 4 , 0.0498539 , 355.639
0 , 3.97507 , 4 , 0.0498539 , 356.529
0 , 3.97507 , 4 , 0.0498539 , 357.419
0 , 3.97507 , 4 , 0.0498539 , 358.308
0 , 3.97507 , 4 , 0.0498539 , 359.198
0 , 3.97507 , 4 , 0.0498539 , 360.088
0 , 3.97507 , 4 , 0.0498539 , 360.978
0 , 3.97507 , 4 , 0.0498539 , 361.868
0 , 3.97507 , 4 , 0.0498539 , 362.758
0 , 3.97507 , 4 , 0.0498539 , 363.648
0 , 3.97507 , 4 , 0.0498539 , 364.537
0 , 3.97507 , 4 , 0.0498539 , 365.427
0 , 3.97507 , 4 , 0.0498539 , 366.317
0 , 3.97507 , 4 , 0.0498539 , 367.207
0 , 3.97507 , 4 , 0.0498539 , 368.097
0 , 3.97507 , 4 , 0.0498539 , 368.987
0 , 3.97507 , 4 , 0.0498539 , 369.876
0 , 3.97507 , 4 , 0.0498539 , 370.766
0 , 3.97614 , 4 , 0.0477167 , 325.118
0 , 3.97614 , 4 , 0.0477167 , 367.37
0 , 3.97614 , 4 , 0.0477167 , 368.222
0 , 3.97721 , 4 , 0.0455796 , 322.536
0 , 3.97721 , 4 , 0.0455796 , 364.75
0 , 3.97828 , 4 , 0.0434425 , 319.025
0 , 3.97828 , 4 , 0.0434425 , 361.201
0 , 3.97828 , 4 , 0.0434425 , 361.976
0 , 3.97935 , 4 , 0.0413053 , 316.214
0 , 3.98148 , 4 , 0.0370311 , 265.275
0 , 3.98148 , 4 , 0.0370311 , 348.737
0 , 3.98255 , 4 , 0.0348939 , 302.86
0 , 3.98362 , 4 , 0.0327568 , 298.345
0 , 3.98469 , 4 , 0.0306197 , 293.792
0 , 3.98576 , 4 , 0.0284825 , 289.201
0 , 3.98683 , 4 , 0.0263454 , 284.572
0 , 3.9879 , 4 , 0.0242082 , 279.905
0 , 3.9879 , 4 , 0.0242082 , 321.737
0 , 3.98896 , 4 , 0.0220711 , 275.631
0 , 3.99003 , 4 , 0.019934 , 270.888
0 , 3.9911 , 4 , 0.0177968 , 266.106
0 , 3.9911 , 4 , 0.0177968 , 307.824
0 , 3.9911 , 4 , 0.0177968 , 308.142
0 , 3.99217 , 4 , 0.0156597 , 261.921
0 , 3.99217 , 4 , 0.0156597 , 303.601
0 , 3.99324 , 4 , 0.0135226 , 257.343
0 , 3.99324 , 4 , 0.0135226 , 298.984
0 , 3.99431 , 4 , 0.0113854 , 252.688
0 , 3.99431 , 4 , 0.0113854 , 294.291
0 , 3.99538 , 4 , 0.00924829 , 247.956
0 , 3.99538 , 4 , 0.00924829 , 289.522
0 , 3.99538 , 4 , 0.00924829 , 289.687
0 , 3.99538 , 4 , 0.00924829 , 289.852
0 , 3.99538 , 4 , 0.00924829 , 290.017
0 , 3.99538 , 4 , 0.00924829 , 290.182
0 , 3.99538 , 4 , 0.00924829 , 290.347
0 , 3.99538 , 4 , 0.00924829 , 290.512
0 , 3.99538 , 4 , 0.00924829 , 290.677
0 , 3.99538 , 4 , 0.00924829 , 290.843
0 , 3.99538 , 4 , 0.00924829 , 291.008
0 , 3.99538 , 4 , 0.00924829 , 291.173
0 , 3.99538 , 4 , 0.00924829 , 291.338
0 , 3.99538 , 4 , 0.00924829 , 291.503
0 , 3.99538 , 4 , 0.00924829 , 291.668
0 , 3.99538 , 4 , 0.00924829 , 291.833
0 , 3.99538 , 4 , 0.00924829 , 291.998
0 , 3.99538 , 4 , 0.00924829 , 292.163
0 , 3.99538 , 4 , 0.00924829 , 292.328
0 , 3.99538 , 4 , 0.00924829 , 292.493
0 , 3.99538 , 4 , 0.00924829 , 292.658
0 , 3.99538 , 4 , 0.00924829 , 292.823
0 , 3.99538 , 4 , 0.00924829 , 292.989
0 , 3.99538 , 4 , 0.00924829 , 293.154
0 , 3.99538 , 4 , 0.00924829 , 293.319
0 , 3.99538 , 4 , 0.00924829 , 293.484
0 , 3.99538 , 4 , 0.00924829 , 293.649
0 , 3.99538 , 4 , 0.00924829 , 293.814
0 , 3.99538 , 4 , 0.00924829 , 293.979
0 , 3.99538 , 4 , 0.00924829 , 294.144
0 , 3.99538 , 4 , 0.00924829 , 294.309
0 , 3.99538 , 4 , 0.00924829 , 294.474
0 , 3.99538 , 4 , 0.00924829 , 294.639
0 , 3.99538 , 4 , 0.00924829 , 294.804
0 , 3.99538 , 4 , 0.00924829 , 294.969
0 , 3.99538 , 4 , 0.00924829 , 295.135
0 , 3.99538 , 4 , 0.00924829 , 295.3
0 , 3.99538 , 4 , 0.00924829 , 295.465
0 , 3.99538 , 4 , 0.00924829 , 295.63
0 , 3.99538 , 4 , 0.00924829 , 295.795
0 , 3.99538 , 4 , 0.00924829 , 295.96
0 , 3.99538 , 4 , 0.00924829 , 296.125
0 , 3.99538 , 4 , 0.00924829 , 296.29
0 , 3.99538 , 4 , 0.00924829 , 296.455
0 , 3.99538 , 4 , 0.00924829 , 296.62
0 , 3.99538 , 4 , 0.00924829 , 296.785
0 , 3.99538 , 4 , 0.00924829 , 296.95
0 , 3.99538 , 4 , 0.00924829 , 297.115
0 , 3.99538 , 4 , 0.00924829 , 297.28
0 , 3.99538 , 4 , 0.00924829 , 297.446
0 , 3.99538 , 4 , 0.00924829 , 297.611
0 , 3.99538 , 4 , 0.00924829 , 297.776
0 , 3.99538 , 4 , 0.00924829 , 297.941
0 , 3.99538 , 4 , 0.00924829 , 298.106
0 , 3.99538 , 4 , 0.00924829 , 298.271
0 , 3.99538 , 4 , 0.00924829 , 298.436
0 , 3.99538 , 4 , 0.00924829 , 298.601
0 , 3.99538 , 4 , 0.00924829 , 298.766
0 , 3.99538 , 4 , 0.00924829 , 298.931
0 , 3.99538 , 4 , 0.00924829 , 299.096
0 , 3.99538 , 4 , 0.00924829 , 299.261
0 , 3.99538 , 4 , 0.00924829 , 299.426
0 , 3.99538 , 4 , 0.00924829 , 299.592
0 , 3.99538 , 4 , 0.00924829 , 299.757
0 , 3.99538 , 4 , 0.00924829 , 299.922
0 , 3.99538 , 4 , 0.00924829 , 300.087
0 , 3.99538 , 4 , 0.00924829 , 300.252
0 , 3.99538 , 4 , 0.00924829 , 300.417
0 , 3.99538 , 4 , 0.00924829 , 300.582
0 , 3.99538 , 4 , 0.00924829 , 300.747
0 , 3.99538 , 4 , 0.00924829 , 300.912
0 , 3.99538 , 4 , 0.00924829 , 301.077
0 , 3.99538 , 4 , 0.00924829 , 301.242
0 , 3.99538 , 4 , 0.00924829 , 301.407
0 , 3.99538 , 4 , 0.00924829 , 301.572
0 , 3.99538 , 4 , 0.00924829 , 301.737
0 , 3.99538 , 4 , 0.00924829 , 301.903
0 , 3.99538 , 4 , 0.00924829 , 302.068
0 , 3.99538 , 4 , 0.00924829 , 302.233
0 , 3.99538 , 4 , 0.00924829 , 302.398
0 , 3.99538 , 4 , 0.00924829 , 302.563
0 , 3.99538 , 4 , 0.00924829 , 302.728
0 , 3.99538 , 4 , 0.00924829 , 302.893
0 , 3.99538 , 4 , 0.00924829 , 303.058
0 , 3.99538 , 4 , 0.00924829 , 303.223
0 , 3.99538 , 4 , 0.00924829 , 303.388
0 , 3.99538 , 4 , 0.00924829 , 303.553
0 , 3.99538 , 4 , 0.00924829 , 303.718
0 , 3.99538 , 4 , 0.00924829 , 303.883
0 , 3.99538 , 4 , 0.00924829 , 304.049
0 , 3.99538 , 4 , 0.00924829 , 304.214
0 , 3.99538 , 4 , 0.00924829 , 304.379
0 , 3.99538 , 4 , 0.00924829 , 304.544
0 , 3.99538 , 4 , 0.00924829 , 304.709
0 , 3.99538 , 4 , 0.00924829 , 304.874
0 , 3.99538 , 4 , 0.00924829 , 305.039
0 , 3.99538 , 4 , 0.00924829 , 305.204
0 , 3.99538 , 4 , 0.00924829 , 305.369
0 , 3.99538 , 4 , 0.00924829 , 305.534
0 , 3.99538 , 4 , 0.00924829 , 305.699
0 , 3.99538 , 4 , 0.00924829 , 305.864
0 , 3.99538 , 4 , 0.00924829 , 306.029
0 , 3.99538 , 4 , 0.00924829 , 306.195
0 , 3.99538 , 4 , 0.00924829 , 306.36
0 , 3.99538 , 4 , 0.00924829 , 306.525
0 , 3.99538 , 4 , 0.00924829 , 306.69
0 , 3.99538 , 4 , 0.00924829 , 306.855
0 , 3.99538 , 4 , 0.00924829 , 307.02
0 , 3.99538 , 4 , 0.00924829 , 307.185
0 , 3.99538 , 4 , 0.00924829 , 307.35
0 , 3.99538 , 4 , 0.00924829 , 307.515
0 , 3.99538 , 4 , 0.00924829 , 307.68
0 , 3.99538 , 4 , 0.00924829 , 307.845
0 , 3.99538 , 4 , 0.00924829 , 308.01
0 , 3.99538 , 4 , 0.00924829 , 308.175
0 , 3.99538 , 4 , 0.00924829 , 308.34
0 , 3.99538 , 4 , 0.00924829 , 308.506
0 , 3.99538 , 4 , 0.00924829 , 308.671
0 , 3.99538 , 4 , 0.00924829 , 308.836
0 , 3.99538 , 4 , 0.00924829 , 309.001
0 , 3.99538 , 4 , 0.00924829 , 309.166
0 , 3.99538 , 4 , 0.00924829 , 309.331
0 , 3.99538 , 4 , 0.00924829 , 309.496
0 , 3.99538 , 4 , 0.00924829 , 309.661
0 , 3.99538 , 4 , 0.00924829 , 309.826
0 , 3.99538 , 4 , 0.00924829 , 309.991
0 , 3.99538 , 4 , 0.00924829 , 310.156
0 , 3.99538 , 4 , 0.00924829 , 310.321
0 , 3.99538 , 4 , 0.00924829 , 310.486
0 , 3.99538 , 4 , 0.00924829 , 310.652
0 , 3.99538 , 4 , 0.00924829 , 310.817
0 , 3.99538 , 4 , 0.00924829 , 310.982
0 , 3.99538 , 4 , 0.00924829 , 311.147
0 , 3.99538 , 4 , 0.00924829 , 311.312
0 , 3.99538 , 4 , 0.00924829 , 311.477
0 , 3.99538 , 4 , 0.00924829 , 311.642
0 , 3.99538 , 4 , 0.00924829 , 311.807
0 , 3.99538 , 4 , 0.00924829 , 311.972
0 , 3.99538 , 4 , 0.00924829 , 312.137
0 , 3.99538 , 4 , 0.00924829 , 312.302
0 , 3.99538 , 4 , 0.00924829 , 312.467
0 , 3.99538 , 4 , 0.00924829 , 312.632
0 , 3.99538 , 4 , 0.00924829 , 312.797
0 , 3.99538 , 4 , 0.00924829 , 312.963
0 , 3.99538 , 4 , 0.00924829 , 313.128
0 , 3.99538 , 4 , 0.00924829 , 313.293
0 , 3.99538 , 4 , 0.00924829 , 313.458
0 , 3.99538 , 4 , 0.00924829 , 313.623
0 , 3.99538 , 4 , 0.00924829 , 313.788
0 , 3.99538 , 4 , 0.00924829 , 313.953
0 , 3.99538 , 4 , 0.00924829 , 314.118
0 , 3.99538 , 4 , 0.00924829 , 314.283
0 , 3.99538 , 4 , 0.00924829 , 314.448
0 , 3.99538 , 4 , 0.00924829 , 314.613
0 , 3.99538 , 4 , 0.00924829 , 314.778
0 , 3.99538 , 4 , 0.00924829 , 314.943
0 , 3.99538 , 4 , 0.00924829 , 315.109
0 , 3.99538 , 4 , 0.00924829 , 315.274
0 , 3.99538 , 4 , 0.00924829 , 315.439
0 , 3.99538 , 4 , 0.00924829 , 315.604
0 , 3.99538 , 4 , 0.00924829 , 315.769
0 , 3.99538 , 4 , 0.00924829 , 315.934
0 , 3.99538 , 4 , 0.00924829 , 316.099
0 , 3.99538 , 4 , 0.00924829 , 316.264
0 , 3.99538 , 4 , 0.00924829 , 316.429
0 , 3.99538 , 4 , 0.00924829 , 316.594
0 , 3.99538 , 4 , 0.00924829 , 316.759
0 , 3.99538 , 4 , 0.00924829 , 316.924
0 , 3.99538 , 4 , 0.00924829 , 317.089
0 , 3.99538 , 4 , 0.00924829 , 317.255
0 , 3.99538 , 4 , 0.00924829 , 317.42
0 , 3.99538 , 4 , 0.00924829 , 317.585
0 , 3.99538 , 4 , 0.00924829 , 317.75
0 , 3.99538 , 4 , 0.00924829 , 317.915
0 , 3.99538 , 4 , 0.00924829 , 318.08
0 , 3.99538 , 4 , 0.00924829 , 318.245
0 , 3.99538 , 4 , 0.00924829 , 318.41
0 , 3.99538 , 4 , 0.00924829 , 318.575
0 , 3.99538 , 4 , 0.00924829 , 318.74
0 , 3.99538 , 4 , 0.00924829 , 318.905
0 , 3.99538 , 4 , 0.00924829 , 319.07
0 , 3.99538 , 4 , 0.00924829 , 319.235
0 , 3.99538 , 4 , 0.00924829 , 319.4
0 , 3.99538 , 4 , 0.00924829 , 319.566
0 , 3.99538 , 4 , 0.00924829 , 319.731
0 , 3.99538 , 4 , 0.00924829 , 319.896
0 , 3.99538 , 4 , 0.00924829 , 320.061
0 , 3.99538 , 4 , 0.00924829 , 320.226
0 , 3.99538 , 4 , 0.00924829 , 320.391
0 , 3.99538 , 4 , 0.00924829 , 320.556
0 , 3.99538 , 4 , 0.00924829 , 320.721
0 , 3.99538 , 4 , 0.00924829 , 320.886
0 , 3.99538 , 4 , 0.00924829 , 321.051
0 , 3.99538 , 4 , 0.00924829 , 321.216
0 , 3.99538 , 4 , 0.00924829 , 321.381
0 , 3.99538 , 4 , 0.00924829 , 321.546
0 , 3.99538 , 4 , 0.00924829 , 321.712
0 , 3.99538 , 4 , 0.00924829 , 321.877
0 , 3.99538 , 4 , 0.00924829 , 322.042
0 , 3.99538 , 4 , 0.00924829 , 322.207
0 , 3.99538 , 4 , 0.00924829 , 322.372
0 , 3.99538 , 4 , 0.00924829 , 322.537
0 , 3.99538 , 4 , 0.00924829 , 322.702
0 , 3.99538 , 4 , 0.00924829 , 322.867
0 , 3.99538 , 4 , 0.00924829 , 323.032
0 , 3.99538 , 4 , 0.00924829 , 323.197
0 , 3.99538 , 4 , 0.00924829 , 323.362
0 , 3.99538 , 4 , 0.00924829 , 323.527
0 , 3.99538 , 4 , 0.00924829 , 323.692
0 , 3.99538 , 4 , 0.00924829 , 323.857
0 , 3.99538 , 4 , 0.00924829 , 324.023
0 , 3.99538 , 4 , 0.00924829 , 324.188
0 , 3.99538 , 4 , 0.00924829 , 324.353
0 , 3.99538 , 4 , 0.00924829 , 324.518
0 , 3.99538 , 4 , 0.00924829 , 324.683
0 , 3.99538 , 4 , 0.00924829 , 324.848
0 , 3.99538 , 4 , 0.00924829 , 325.013
0 , 3.99538 , 4 , 0.00924829 , 325.178
0 , 3.99538 , 4 , 0.00924829 , 325.343
0 , 3.99538 , 4 , 0.00924829 , 325.508
0 , 3.99538 , 4 , 0.00924829 , 325.673
0 , 3.99538 , 4 , 0.00924829 , 325.838
0 , 3.99538 , 4 , 0.00924829 , 326.003
0 , 3.99538 , 4 , 0.00924829 , 326.169
0 , 3.99538 , 4 , 0.00924829 , 326.334
0 , 3.99538 , 4 , 0.00924829 , 326.499
0 , 3.99538 , 4 , 0.00924829 , 326.664
0 , 3.99538 , 4 , 0.00924829 , 326.829
0 , 3.99538 , 4 , 0.00924829 , 326.994
0 , 3.99644 , 4 , 0.00711116 , 280.621
0 , 3.99644 , 4 , 0.00711116 , 322.148
0 , 3.99751 , 4 , 0.00497402 , 275.737
0 , 3.99751 , 4 , 0.00497402 , 317.226
0 , 3.99858 , 4 , 0.00283688 , 270.777
0 , 3.99858 , 4 , 0.00283688 , 312.228
0 , 3.99965 , 4 , 0.000699748 , 265.741
0 , 3.99965 , 4 , 0.000699748 , 307.154
0 , 4.00072 , 4 , -0.00143739 , 260.628
0 , 4.00072 , 4 , -0.00143739 , 302.003
0 , 4.00286 , 4 , -0.00571166 , 208.901
0 , 4.00286 , 4 , -0.00571166 , 291.6
0 , 4.00392 , 4 , -0.0078488 , 244.96
0 , 4.00392 , 4 , -0.0078488 , 286.22
0 , 4.00392 , 4 , -0.0078488 , 286.08
0 , 4.00392 , 4 , -0.0078488 , 285.94
0 , 4.00499 , 4 , -0.00998593 , 239.262
0 , 4.00499 , 4 , -0.00998593 , 280.484
0 , 4.00499 , 4 , -0.00998593 , 280.306
0 , 4.00499 , 4 , -0.00998593 , 280.128
0 , 4.00499 , 4 , -0.00998593 , 279.95
0 , 4.00499 , 4 , -0.00998593 , 279.771
0 , 4.00499 , 4 , -0.00998593 , 279.593
0 , 4.00499 , 4 , -0.00998593 , 279.415
0 , 4.00499 , 4 , -0.00998593 , 279.237
0 , 4.00499 , 4 , -0.00998593 , 279.058
0 , 4.00499 , 4 , -0.00998593 , 278.88
0 , 4.00499 , 4 , -0.00998593 , 278.702
0 , 4.00499 , 4 , -0.00998593 , 278.524
0 , 4.00499 , 4 , -0.00998593 , 278.345
0 , 4.00499 , 4 , -0.00998593 , 278.167
0 , 4.00499 , 4 , -0.00998593 , 277.989
0 , 4.00499 , 4 , -0.00998593 , 277.811
0 , 4.00499 , 4 , -0.00998593 , 277.632
0 , 4.00499 , 4 , -0.00998593 , 277.454
0 , 4.00499 , 4 , -0.00998593 , 277.276
0 , 4.00499 , 4 , -0.00998593 , 277.098
0 , 4.00499 , 4 , -0.00998593 , 276.919
0 , 4.00499 , 4 , -0.00998593 , 276.741
0 , 4.00499 , 4 , -0.00998593 , 276.563
0 , 4.00499 , 4 , -0.00998593 , 276.385
0 , 4.00499 , 4 , -0.00998593 , 276.206
0 , 4.00499 , 4 , -0.00998593 , 276.028
0 , 4.00499 , 4 , -0.00998593 , 275.85
0 , 4.00499 , 4 , -0.00998593 , 275.672
0 , 4.00499 , 4 , -0.00998593 , 275.493
0 , 4.00499 , 4 , -0.00998593 , 275.315
0 , 4.00499 , 4 , -0.00998593 , 275.137
0 , 4.00499 , 4 , -0.00998593 , 274.959
0 , 4.00499 , 4 , -0.00998593 , 274.781
0 , 4.00499 , 4 , -0.00998593 , 274.602
0 , 4.00499 , 4 , -0.00998593 , 274.424
0 , 4.00499 , 4 , -0.00998593 , 274.246
0 , 4.00499 , 4 , -0.00998593 , 274.068
0 , 4.00499 , 4 , -0.00998593 , 273.889
0 , 4.00499 , 4 , -0.00998593 , 273.711
0 , 4.00499 , 4 , -0.00998593 , 273.533
0 , 4.00499 , 4 , -0.00998593 , 273.355
0 , 4.00499 , 4 , -0.00998593 , 273.176
0 , 4.00499 , 4 , -0.00998593 , 272.998
0 , 4.00499 , 4 , -0.00998593 , 272.82
0 , 4.00499 , 4 , -0.00998593 , 272.642
0 , 4.00499 , 4 , -0.00998593 , 272.463
0 , 4.00499 , 4 , -0.00998593 , 272.285
0 , 4.00499 , 4 , -0.00998593 , 272.107
0 , 4.00499 , 4 , -0.00998593 , 271.929
0 , 4.00499 , 4 , -0.00998593 , 271.75
0 , 4.00499 , 4 , -0.00998593 , 271.572
0 , 4.00499 , 4 , -0.00998593 , 271.394
0 , 4.00499 , 4 , -0.00998593 , 271.216
0 , 4.00499 , 4 , -0.00998593 , 271.037
0 , 4.00499 , 4 , -0.00998593 , 270.859
0 , 4.00499 , 4 , -0.00998593 , 270.681
0 , 4.00499 , 4 , -0.00998593 , 270.503
0 , 4.00499 , 4 , -0.00998593 , 270.325
0 , 4.00499 , 4 , -0.00998593 , 270.146
0 , 4.00499 , 4 , -0.00998593 , 269.968
0 , 4.00499 , 4 , -0.00998593 , 269.79
0 , 4.00499 , 4 , -0.00998593 , 269.612
0 , 4.00499 , 4 , -0.00998593 , 269.433
0 , 4.00499 , 4 , -0.00998593 , 269.255
0 , 4.00499 , 4 , -0.00998593 , 269.077
0 , 4.00499 , 4 , -0.00998593 , 268.899
0 , 4.00499 , 4 , -0.00998593 , 268.72
0 , 4.00499 , 4 , -0.00998593 , 268.542
0 , 4.00499 , 4 , -0.00998593 , 268.364
0 , 4.00499 , 4 , -0.00998593 , 268.186
0 , 4.00499 , 4 , -0.00998593 , 268.007
0 , 4.00499 , 4 , -0.00998593 , 267.829
0 , 4.00499 , 4 , -0.00998593 , 267.651
0 , 4.00499 , 4 , -0.00998593 , 267.473
0 , 4.00499 , 4 , -0.00998593 , 267.294
0 , 4.00499 , 4 , -0.00998593 , 267.116
0 , 4.00499 , 4 , -0.00998593 , 266.938
0 , 4.00499 , 4 , -0.00998593 , 266.76
0 , 4.00499 , 4 , -0.00998593 , 266.581
0 , 4.00499 , 4 , -0.00998593 , 266.403
0 , 4.00499 , 4 , -0.00998593 , 266.225
0 , 4.00499 , 4 , -0.00998593 , 266.047
0 , 4.00499 , 4 , -0.00998593 , 265.868
0 , 4.00499 , 4 , -0.00998593 , 265.69
0 , 4.00499 , 4 , -0.00998593 , 265.512
0 , 4.00499 , 4 , -0.00998593 , 265.334
0 , 4.00499 , 4 , -0.00998593 , 265.156
0 , 4.00499 , 4 , -0.00998593 , 264.977
0 , 4.00499 , 4 , -0.00998593 , 264.799
0 , 4.00499 , 4 , -0.00998593 , 264.621
0 , 4.00499 , 4 , -0.00998593 , 264.443
0 , 4.00499 , 4 , -0.00998593 , 264.264
0 , 4.00499 , 4 , -0.00998593 , 264.086
0 , 4.00499 , 4 , -0.00998593 , 263.908
0 , 4.00499 , 4 , -0.00998593 , 263.73
0 , 4.00499 , 4 , -0.00998593 , 263.551
0 , 4.00499 , 4 , -0.00998593 , 263.373
0 , 4.00499 , 4 , -0.00998593 , 263.195
0 , 4.00499 , 4 , -0.00998593 , 263.017
0 , 4.00499 , 4 , -0.00998593 , 262.838
0 , 4.00499 , 4 , -0.00998593 , 262.66
0 , 4.00499 , 4 , -0.00998593 , 262.482
0 , 4.00499 , 4 , -0.00998593 , 262.304
0 , 4.00499 , 4 , -0.00998593 , 262.125
0 , 4.00499 , 4 , -0.00998593 , 261.947
0 , 4.00499 , 4 , -0.00998593 , 261.769
0 , 4.00499 , 4 , -0.00998593 , 261.591
0 , 4.00499 , 4 , -0.00998593 , 261.412
0 , 4.00499 , 4 , -0.00998593 , 261.234
0 , 4.00499 , 4 , -0.00998593 , 261.056
0 , 4.00499 , 4 , -0.00998593 , 260.878
0 , 4.00499 , 4 , -0.00998593 , 260.699
0 , 4.00499 , 4 , -0.00998593 , 260.521
0 , 4.00499 , 4 , -0.00998593 , 260.343
0 , 4.00499 , 4 , -0.00998593 , 260.165
0 , 4.00499 , 4 , -0.00998593 , 259.987
0 , 4.00499 , 4 , -0.00998593 , 259.808
0 , 4.00499 , 4 , -0.00998593 , 259.63
0 , 4.00499 , 4 , -0.00998593 , 259.452
0 , 4.00499 , 4 , -0.00998593 , 259.274
0 , 4.00499 , 4 , -0.00998593 , 259.095
0 , 4.00499 , 4 , -0.00998593 , 258.917
0 , 4.00499 , 4 , -0.00998593 , 258.739
0 , 4.00499 , 4 , -0.00998593 , 258.561
0 , 4.00499 , 4 , -0.00998593 , 258.382
0 , 4.00499 , 4 , -0.00998593 , 258.204
0 , 4.00499 , 4 , -0.00998593 , 258.026
0 , 4.00499 , 4 , -0.00998593 , 257.848
0 , 4.00499 , 4 , -0.00998593 , 257.669
0 , 4.00499 , 4 , -0.00998593 , 257.491
0 , 4.00499 , 4 , -0.00998593 , 257.313
0 , 4.00499 , 4 , -0.00998593 , 257.135
0 , 4.00499 , 4 , -0.00998593 , 256.956
0 , 4.00499 , 4 , -0.00998593 , 256.778
0 , 4.00499 , 4 , -0.00998593 , 256.6
0 , 4.00499 , 4 , -0.00998593 , 256.422
0 , 4.00499 , 4 , -0.00998593 , 256.243
0 , 4.00499 , 4 , -0.00998593 , 256.065
0 , 4.00499 , 4 , -0.00998593 , 255.887
0 , 4.00499 , 4 , -0.00998593 , 255.709
0 , 4.00499 , 4 , -0.00998593 , 255.531
0 , 4.00499 , 4 , -0.00998593 , 255.352
0 , 4.00499 , 4 , -0.00998593 , 255.174
0 , 4.00499 , 4 , -0.00998593 , 254.996
0 , 4.00499 , 4 , -0.00998593 , 254.818
0 , 4.00499 , 4 , -0.00998593 , 254.639
0 , 4.00499 , 4 , -0.00998593 , 254.461
0 , 4.00499 , 4 , -0.00998593 , 254.283
0 , 4.00499 , 4 , -0.00998593 , 254.105
0 , 4.00499 , 4 , -0.00998593 , 253.926
0 , 4.00499 , 4 , -0.00998593 , 253.748
0 , 4.00499 , 4 , -0.00998593 , 253.57
0 , 4.00499 , 4 , -0.00998593 , 253.392
0 , 4.00499 , 4 , -0.00998593 , 253.213
0 , 4.00499 , 4 , -0.00998593 , 253.035
0 , 4.00499 , 4 , -0.00998593 , 252.857
0 , 4.00499 , 4 , -0.00998593 , 252.679
0 , 4.00499 , 4 , -0.00998593 , 252.5
0 , 4.00499 , 4 , -0.00998593 , 252.322
0 , 4.00499 , 4 , -0.00998593 , 252.144
0 , 4.00499 , 4 , -0.00998593 , 251.966
0 , 4.00499 , 4 , -0.00998593 , 251.787
0 , 4.00499 , 4 , -0.00998593 , 251.609
0 , 4.00499 , 4 , -0.00998593 , 251.431
0 , 4.00499 , 4 , -0.00998593 , 251.253
0 , 4.00499 , 4 , -0.00998593 , 251.074
0 , 4.00499 , 4 , -0.00998593 , 250.896
0 , 4.00499 , 4 , -0.00998593 , 250.718
0 , 4.00499 , 4 , -0.00998593 , 250.54
0 , 4.00499 , 4 , -0.00998593 , 250.362
0 , 4.00499 , 4 , -0.00998593 , 250.183
0 , 4.00499 , 4 , -0.00998593 , 250.005
0 , 4.00499 , 4 , -0.00998593 , 249.827
0 , 4.00499 , 4 , -0.00998593 , 249.649
0 , 4.00499 , 4 , -0.00998593 , 249.47
0 , 4.00499 , 4 , -0.00998593 , 249.292
0 , 4.00499 , 4 , -0.00998593 , 249.114
0 , 4.00499 , 4 , -0.00998593 , 248.936
0 , 4.00499 , 4 , -0.00998593 , 248.757
0 , 4.00499 , 4 , -0.00998593 , 248.579
0 , 4.00499 , 4 , -0.00998593 , 248.401
0 , 4.00499 , 4 , -0.00998593 , 248.223
0 , 4.00499 , 4 , -0.00998593 , 248.044
0 , 4.00499 , 4 , -0.00998593 , 247.866
0 , 4.00499 , 4 , -0.00998593 , 247.688
0 , 4.00499 , 4 , -0.00998593 , 247.51
0 , 4.00499 , 4 , -0.00998593 , 247.331
0 , 4.00499 , 4 , -0.00998593 , 247.153
0 , 4.00499 , 4 , -0.00998593 , 246.975
0 , 4.00499 , 4 , -0.00998593 , 246.797
0 , 4.00499 , 4 , -0.00998593 , 246.618
0 , 4.00499 , 4 , -0.00998593 , 246.44
0 , 4.00499 , 4 , -0.00998593 , 246.262
0 , 4.00499 , 4 , -0.00998593 , 246.084
0 , 4.00499 , 4 , -0.00998593 , 245.906
0 , 4.00499 , 4 , -0.00998593 , 245.727
0 , 4.00499 , 4 , -0.00998593 , 245.549
0 , 4.00499 , 4 , -0.00998593 , 245.371
0 , 4.00499 , 4 , -0.00998593 , 245.193
0 , 4.00499 , 4 , -0.00998593 , 245.014
0 , 4.00499 , 4 , -0.00998593 , 244.836
0 , 4.00499 , 4 , -0.00998593 , 244.658
0 , 4.00499 , 4 , -0.00998593 , 244.48
0 , 4.00499 , 4 , -0.00998593 , 244.301
0 , 4.00499 , 4 , -0.00998593 , 244.123
0 , 4.00499 , 4 , -0.00998593 , 243.945
0 , 4.00499 , 4 , -0.00998593 , 243.767
0 , 4.00499 , 4 , -0.00998593 , 243.588
0 , 4.00499 , 4 , -0.00998593 , 243.41
0 , 4.00499 , 4 , -0.00998593 , 243.232
0 , 4.00499 , 4 , -0.00998593 , 243.054
0 , 4.00499 , 4 , -0.00998593 , 242.875
0 , 4.00499 , 4 , -0.00998593 , 242.697
0 , 4.00499 , 4 , -0.00998593 , 242.519
0 , 4.00499 , 4 , -0.00998593 , 242.341
0 , 4.00499 , 4 , -0.00998593 , 242.162
0 , 4.00499 , 4 , -0.00998593 , 241.984
0 , 4.00499 , 4 , -0.00998593 , 241.806
0 , 4.00499 , 4 , -0.00998593 , 241.628
0 , 4.00499 , 4 , -0.00998593 , 241.449
0 , 4.00499 , 4 , -0.00998593 , 241.271
0 , 4.00499 , 4 , -0.00998593 , 241.093
0 , 4.00499 , 4 , -0.00998593 , 240.915
0 , 4.00499 , 4 , -0.00998593 , 240.737
0 , 4.00499 , 4 , -0.00998593 , 240.558
0 , 4.00499 , 4 , -0.00998593 , 240.38
0 , 4.00499 , 4 , -0.00998593 , 240.202
0 , 4.00499 , 4 , -0.00998593 , 240.024
0 , 4.00499 , 4 , -0.00998593 , 239.845
0 , 4.00499 , 4 , -0.00998593 , 239.667
0 , 4.00499 , 4 , -0.00998593 , 239.489
0 , 4.00499 , 4 , -0.00998593 , 239.311
0 , 4.00499 , 4 , -0.00998593 , 239.132
0 , 4.00499 , 4 , -0.00998593 , 238.954
0 , 4.00499 , 4 , -0.00998593 , 238.776
0 , 4.00499 , 4 , -0.00998593 , 238.598
0 , 4.00499 , 4 , -0.00998593 , 238.419
0 , 4.00499 , 4 , -0.00998593 , 238.241
0 , 4.00499 , 4 , -0.00998593 , 238.063
0 , 4.00499 , 4 , -0.00998593 , 237.885
0 , 4.00499 , 4 , -0.00998593 , 237.706
0 , 4.00499 , 4 , -0.00998593 , 237.528
0 , 4.00499 , 4 , -0.00998593 , 237.35
0 , 4.00499 , 4 , -0.00998593 , 237.172
0 , 4.00499 , 4 , -0.00998593 , 236.993
0 , 4.00499 , 4 , -0.00998593 , 236.815
0 , 4.00499 , 4 , -0.00998593 , 236.637
0 , 4.00499 , 4 , -0.00998593 , 236.459
0 , 4.00499 , 4 , -0.00998593 , 236.28
0 , 4.00499 , 4 , -0.00998593 , 236.102
0 , 4.00499 , 4 , -0.00998593 , 235.924
0 , 4.00499 , 4 , -0.00998593 , 235.746
0 , 4.00499 , 4 , -0.00998593 , 235.568
0 , 4.00499 , 4 , -0.00998593 , 235.389
0 , 4.00499 , 4 , -0.00998593 , 235.211
0 , 4.00499 , 4 , -0.00998593 , 235.033
0 , 4.00499 , 4 , -0.00998593 , 234.855
0 , 4.00499 , 4 , -0.00998593 , 234.676
0 , 4.00499 , 4 , -0.00998593 , 234.498
0 , 4.00499 , 4 , -0.00998593 , 234.32
0 , 4.00499 , 4 , -0.00998593 , 234.142
0 , 4.00499 , 4 , -0.00998593 , 233.963
0 , 4.00499 , 4 , -0.00998593 , 233.785
0 , 4.00499 , 4 , -0.00998593 , 233.607
0 , 4.00499 , 4 , -0.00998593 , 233.429
0 , 4.00499 , 4 , -0.00998593 , 233.25
0 , 4.00499 , 4 , -0.00998593 , 233.072
0 , 4.00499 , 4 , -0.00998593 , 232.894
0 , 4.00499 , 4 , -0.00998593 , 232.716
0 , 4.00499 , 4 , -0.00998593 , 232.537
0 , 4.00499 , 4 , -0.00998593 , 232.359
0 , 4.00499 , 4 , -0.00998593 , 232.181
0 , 4.00499 , 4 , -0.00998593 , 232.003
0 , 4.00499 , 4 , -0.00998593 , 231.824
0 , 4.00499 , 4 , -0.00998593 , 231.646
0 , 4.00499 , 4 , -0.00998593 , 231.468
0 , 4.00499 , 4 , -0.00998593 , 231.29
0 , 4.00499 , 4 , -0.00998593 , 231.112
0 , 4.00499 , 4 , -0.00998593 , 230.933
0 , 4.00499 , 4 , -0.00998593 , 230.755
0 , 4.00499 , 4 , -0.00998593 , 230.577
0 , 4.00499 , 4 , -0.00998593 , 230.399
0 , 4.00499 , 4 , -0.00998593 , 230.22
0 , 4.00499 , 4 , -0.00998593 , 230.042
0 , 4.00499 , 4 , -0.00998593 , 229.864
0 , 4.00499 , 4 , -0.00998593 , 229.686
0 , 4.00499 , 4 , -0.00998593 , 229.507
0 , 4.00499 , 4 , -0.00998593 , 229.329
0 , 4.00499 , 4 , -0.00998593 , 229.151
0 , 4.00499 , 4 , -0.00998593 , 228.973
0 , 4.00499 , 4 , -0.00998593 , 228.794
0 , 4.00499 , 4 , -0.00998593 , 228.616
0 , 4.00499 , 4 , -0.00998593 , 228.438
0 , 4.00499 , 4 , -0.00998593 , 228.26
0 , 4.00499 , 4 , -0.00998593 , 228.081
0 , 4.00499 , 4 , -0.00998593 , 227.903
0 , 4.00499 , 4 , -0.00998593 , 227.725
0 , 4.00499 , 4 , -0.00998593 , 227.547
0 , 4.00499 , 4 , -0.00998593 , 227.368
0 , 4.00499 , 4 , -0.00998593 , 227.19
0 , 4.00499 , 4 , -0.00998593 , 227.012
0 , 4.00499 , 4 , -0.00998593 , 226.834
0 , 4.00499 , 4 , -0.00998593 , 226.655
0 , 4.00499 , 4 , -0.00998593 , 226.477
0 , 4.00499 , 4 , -0.00998593 , 226.299
0 , 4.00499 , 4 , -0.00998593 , 226.121
0 , 4.00499 , 4 , -0.00998593 , 225.943
0 , 4.00499 , 4 , -0.00998593 , 225.764
0 , 4.00499 , 4 , -0.00998593 , 225.586
0 , 4.00499 , 4 , -0.00998593 , 225.408
0 , 4.00499 , 4 , -0.00998593 , 225.23
0 , 4.00499 , 4 , -0.00998593 , 225.051
0 , 4.00499 , 4 , -0.00998593 , 224.873
0 , 4.00499 , 4 , -0.00998593 , 224.695
0 , 4.00499 , 4 , -0.00998593 , 224.517
0 , 4.00499 , 4 , -0.00998593 , 224.338
0 , 4.00499 , 4 , -0.00998593 , 224.16
0 , 4.00499 , 4 , -0.00998593 , 223.982
0 , 4.00499 , 4 , -0.00998593 , 223.804
0 , 4.00499 , 4 , -0.00998593 , 223.625
0 , 4.00499 , 4 , -0.00998593 , 223.447
0 , 4.00499 , 4 , -0.00998593 , 223.269
0 , 4.00499 , 4 , -0.00998593 , 223.091
0 , 4.00499 , 4 , -0.00998593 , 222.912
0 , 4.00499 , 4 , -0.00998593 , 222.734
0 , 4.00499 , 4 , -0.00998593 , 222.556
0 , 4.00499 , 4 , -0.00998593 , 222.378
0 , 4.00499 , 4 , -0.00998593 , 222.199
0 , 4.00499 , 4 , -0.00998593 , 222.021
0 , 4.00499 , 4 , -0.00998593 , 221.843
0 , 4.00499 , 4 , -0.00998593 , 221.665
0 , 4.00499 , 4 , -0.00998593 , 221.487
0 , 4.00499 , 4 , -0.00998593 , 221.308
0 , 4.00499 , 4 , -0.00998593 , 221.13
0 , 4.00499 , 4 , -0.00998593 , 220.952
0 , 4.00499 , 4 , -0.00998593 , 220.774
0 , 4.00499 , 4 , -0.00998593 , 220.595
0 , 4.00499 , 4 , -0.00998593 , 220.417
0 , 4.00499 , 4 , -0.00998593 , 220.239
0 , 4.00499 , 4 , -0.00998593 , 220.061
0 , 4.00499 , 4 , -0.00998593 , 219.882
0 , 4.00499 , 4 , -0.00998593 , 219.704
0 , 4.00499 , 4 , -0.00998593 , 219.526
0 , 4.00499 , 4 , -0.00998593 , 219.348
0 , 4.00499 , 4 , -0.00998593 , 219.169
0 , 4.00499 , 4 , -0.00998593 , 218.991
0 , 4.00499 , 4 , -0.00998593 , 218.813
0 , 4.00499 , 4 , -0.00998593 , 218.635
0 , 4.00499 , 4 , -0.00998593 , 218.456
0 , 4.00499 , 4 , -0.00998593 , 218.278
0 , 4.00499 , 4 , -0.00998593 , 218.1
0 , 4.00499 , 4 , -0.00998593 , 217.922
0 , 4.00499 , 4 , -0.00998593 , 217.743
0 , 4.00499 , 4 , -0.00998593 , 217.565
0 , 4.00499 , 4 , -0.00998593 , 217.387
0 , 4.00499 , 4 , -0.00998593 , 217.209
0 , 4.00499 , 4 , -0.00998593 , 217.03
0 , 4.00499 , 4 , -0.00998593 , 216.852
0 , 4.00499 , 4 , -0.00998593 , 216.674
0 , 4.00499 , 4 , -0.00998593 , 216.496
0 , 4.00499 , 4 , -0.00998593 , 216.318
0 , 4.00499 , 4 , -0.00998593 , 216.139
0 , 4.00499 , 4 , -0.00998593 , 215.961
0 , 4.00499 , 4 , -0.00998593 , 215.783
0 , 4.00499 , 4 , -0.00998593 , 215.605
0 , 4.00499 , 4 , -0.00998593 , 215.426
0 , 4.00499 , 4 , -0.00998593 , 215.248
0 , 4.00499 , 4 , -0.00998593 , 215.07
0 , 4.00499 , 4 , -0.00998593 , 214.892
0 , 4.00499 , 4 , -0.00998593 , 214.713
0 , 4.00499 , 4 , -0.00998593 , 214.535
0 , 4.00499 , 4 , -0.00998593 , 214.357
0 , 4.00499 , 4 , -0.00998593 , 214.179
0 , 4.00499 , 4 , -0.00998593 , 214
0 , 4.00499 , 4 , -0.00998593 , 213.822
0 , 4.00499 , 4 , -0.00998593 , 213.644
0 , 4.00499 , 4 , -0.00998593 , 213.466
0 , 4.00499 , 4 , -0.00998593 , 213.287
0 , 4.00499 , 4 , -0.00998593 , 213.109
0 , 4.00499 , 4 , -0.00998593 , 212.931
0 , 4.00499 , 4 , -0.00998593 , 212.753
0 , 4.00499 , 4 , -0.00998593 , 212.574
0 , 4.00499 , 4 , -0.00998593 , 212.396
0 , 4.00499 , 4 , -0.00998593 , 212.218
0 , 4.00499 , 4 , -0.00998593 , 212.04
0 , 4.00499 , 4 , -0.00998593 , 211.861
0 , 4.00499 , 4 , -0.00998593 , 211.683
0 , 4.00499 , 4 , -0.00998593 , 211.505
0 , 4.00499 , 4 , -0.00998593 , 211.327
0 , 4.00499 , 4 , -0.00998593 , 211.149
0 , 4.00499 , 4 , -0.00998593 , 210.97
0 , 4.00499 , 4 , -0.00998593 , 210.792
0 , 4.00499 , 4 , -0.00998593 , 210.614
0 , 4.00499 , 4 , -0.00998593 , 210.436
0 , 4.00499 , 4 , -0.00998593 , 210.257
0 , 4.00499 , 4 , -0.00998593 , 210.079
0 , 4.00499 , 4 , -0.00998593 , 209.901
0 , 4.00499 , 4 , -0.00998593 , 209.723
0 , 4.00499 , 4 , -0.00998593 , 209.544
0 , 4.00499 , 4 , -0.00998593 , 209.366
0 , 4.00499 , 4 , -0.00998593 , 209.188
0 , 4.00499 , 4 , -0.00998593 , 209.01
0 , 4.00499 , 4 , -0.00998593 , 208.831
0 , 4.00499 , 4 , -0.00998593 , 208.653
0 , 4.00499 , 4 , -0.00998593 , 208.475
0 , 4.00499 , 4 , -0.00998593 , 208.297
0 , 4.00499 , 4 , -0.00998593 , 208.118
0 , 4.00499 , 4 , -0.00998593 , 207.94
0 , 4.00499 , 4 , -0.00998593 , 207.762
0 , 4.00499 , 4 , -0.00998593 , 207.584
0 , 4.00499 , 4 , -0.00998593 , 207.405
0 , 4.00499 , 4 , -0.00998593 , 207.227
0 , 4.00499 , 4 , -0.00998593 , 207.049
0 , 4.00499 , 4 , -0.00998593 , 206.871
0 , 4.00499 , 4 , -0.00998593 , 206.693
0 , 4.00499 , 4 , -0.00998593 , 206.514
0 , 4.00499 , 4 , -0.00998593 , 206.336
0 , 4.00499 , 4 , -0.00998593 , 206.158
0 , 4.00499 , 4 , -0.00998593 , 205.98
0 , 4.00499 , 4 , -0.00998593 , 205.801
0 , 4.00499 , 4 , -0.00998593 , 205.623
0 , 4.00499 , 4 , -0.00998593 , 205.445
0 , 4.00499 , 4 , -0.00998593 , 205.267
0 , 4.00499 , 4 , -0.00998593 , 205.088
0 , 4.00499 , 4 , -0.00998593 , 204.91
0 , 4.00499 , 4 , -0.00998593 , 204.732
0 , 4.00499 , 4 , -0.00998593 , 204.554
0 , 4.00499 , 4 , -0.00998593 , 204.375
0 , 4.00499 , 4 , -0.00998593 , 204.197
0 , 4.00499 , 4 , -0.00998593 , 204.019
0 , 4.00499 , 4 , -0.00998593 , 203.841
0 , 4.00499 , 4 , -0.00998593 , 203.662
0 , 4.00499 , 4 , -0.00998593 , 203.484
0 , 4.00499 , 4 , -0.00998593 , 203.306
0 , 4.00499 , 4 , -0.00998593 , 203.128
0 , 4.00499 , 4 , -0.00998593 , 202.949
0 , 4.00499 , 4 , -0.00998593 , 202.771
0 , 4.00499 , 4 , -0.00998593 , 202.593
0 , 4.00499 , 4 , -0.00998593 , 202.415
0 , 4.00499 , 4 , -0.00998593 , 202.236
0 , 4.00499 , 4 , -0.00998593 , 202.058
0 , 4.00499 , 4 , -0.00998593 , 201.88
0 , 4.00499 , 4 , -0.00998593 , 201.702
0 , 4.00499 , 4 , -0.00998593 , 201.524
0 , 4.00499 , 4 , -0.00998593 , 201.345
0 , 4.00499 , 4 , -0.00998593 , 201.167
0 , 4.00499 , 4 , -0.00998593 , 200.989
0 , 4.00499 , 4 , -0.00998593 , 200.811
0 , 4.00499 , 4 , -0.00998593 , 200.632
0 , 4.00499 , 4 , -0.00998593 , 200.454
0 , 4.00499 , 4 , -0.00998593 , 200.276
0 , 4.00499 , 4 , -0.00998593 , 200.098
0 , 4.00499 , 4 , -0.00998593 , 199.919
0 , 4.00499 , 4 , -0.00998593 , 199.741
0 , 4.00499 , 4 , -0.00998593 , 199.563
0 , 4.00499 , 4 , -0.00998593 , 199.385
0 , 4.00499 , 4 , -0.00998593 , 199.206
0 , 4.00499 , 4 , -0.00998593 , 199.028
0 , 4.00499 , 4 , -0.00998593 , 198.85
0 , 4.00499 , 4 , -0.00998593 , 198.672
0 , 4.00499 , 4 , -0.00998593 , 198.493
0 , 4.00499 , 4 , -0.00998593 , 198.315
0 , 4.00499 , 4 , -0.00998593 , 198.137
0 , 4.00499 , 4 , -0.00998593 , 197.959
0 , 4.00499 , 4 , -0.00998593 , 197.78
0 , 4.00499 , 4 , -0.00998593 , 197.602
0 , 4.00499 , 4 , -0.00998593 , 197.424
0 , 4.00499 , 4 , -0.00998593 , 197.246
0 , 4.00499 , 4 , -0.00998593 , 197.067
0 , 4.00499 , 4 , -0.00998593 , 196.889
0 , 4.00499 , 4 , -0.00998593 , 196.711
0 , 4.00499 , 4 , -0.00998593 , 196.533
0 , 4.00499 , 4 , -0.00998593 , 196.355
0 , 4.00499 , 4 , -0.00998593 , 196.176
0 , 4.00499 , 4 , -0.00998593 , 195.998
0 , 4.00499 , 4 , -0.00998593 , 195.82
0 , 4.00499 , 4 , -0.00998593 , 195.642
0 , 4.00499 , 4 , -0.00998593 , 195.463
0 , 4.00499 , 4 , -0.00998593 , 195.285
0 , 4.00499 , 4 , -0.00998593 , 195.107
0 , 4.00499 , 4 , -0.00998593 , 194.929
0 , 4.00499 , 4 , -0.00998593 , 194.75
0 , 4.00499 , 4 , -0.00998593 , 194.572
0 , 4.00499 , 4 , -0.00998593 , 194.394
0 , 4.00499 , 4 , -0.00998593 , 194.216
0 , 4.00499 , 4 , -0.00998593 , 194.037
0 , 4.00499 , 4 , -0.00998593 , 193.859
0 , 4.00499 , 4 , -0.00998593 , 193.681
0 , 4.00499 , 4 , -0.00998593 , 193.503
0 , 4.00499 , 4 , -0.00998593 , 193.324
0 , 4.00499 , 4 , -0.00998593 , 193.146
0 , 4.00499 , 4 , -0.00998593 , 192.968
0 , 4.00499 , 4 , -0.00998593 , 192.79
0 , 4.00499 , 4 , -0.00998593 , 192.611
0 , 4.00499 , 4 , -0.00998593 , 192.433
0 , 4.00499 , 4 , -0.00998593 , 192.255
0 , 4.00499 , 4 , -0.00998593 , 192.077
0 , 4.00499 , 4 , -0.00998593 , 191.899
0 , 4.00499 , 4 , -0.00998593 , 191.72
0 , 4.00499 , 4 , -0.00998593 , 191.542
0 , 4.00499 , 4 , -0.00998593 , 191.364
0 , 4.00499 , 4 , -0.00998593 , 191.186
0 , 4.00499 , 4 , -0.00998593 , 191.007
0 , 4.00499 , 4 , -0.00998593 , 190.829
0 , 4.00499 , 4 , -0.00998593 , 190.651
0 , 4.00499 , 4 , -0.00998593 , 190.473
0 , 4.00499 , 4 , -0.00998593 , 190.294
0 , 4.00499 , 4 , -0.00998593 , 190.116
0 , 4.00499 , 4 , -0.00998593 , 189.938
0 , 4.00499 , 4 , -0.00998593 , 189.76
0 , 4.00499 , 4 , -0.00998593 , 189.581
0 , 4.00499 , 4 , -0.00998593 , 189.403
0 , 4.00499 , 4 , -0.00998593 , 189.225
0 , 4.00499 , 4 , -0.00998593 , 189.047
0 , 4.00499 , 4 , -0.00998593 , 188.868
0 , 4.00499 , 4 , -0.00998593 , 188.69
0 , 4.00499 , 4 , -0.00998593 , 188.512
0 , 4.00499 , 4 , -0.00998593 , 188.334
0 , 4.00499 , 4 , -0.00998593 , 188.155
0 , 4.00499 , 4 , -0.00998593 , 187.977
0 , 4.00499 , 4 , -0.00998593 , 187.799
0 , 4.00499 , 4 , -0.00998593 , 187.621
0 , 4.00499 , 4 , -0.00998593 , 187.442
0 , 4.00499 , 4 , -0.00998593 , 187.264
0 , 4.00499 , 4 , -0.00998593 , 187.086
0 , 4.00499 , 4 , -0.00998593 , 186.908
0 , 4.00499 , 4 , -0.00998593 , 186.73
0 , 4.00499 , 4 , -0.00998593 , 186.551
0 , 4.00499 , 4 , -0.00998593 , 186.373
0 , 4.00499 , 4 , -0.00998593 , 186.195
0 , 4.00499 , 4 , -0.00998593 , 186.017
0 , 4.00499 , 4 , -0.00998593 , 185.838
0 , 4.00499 , 4 , -0.00998593 , 185.66
0 , 4.00499 , 4 , -0.00998593 , 185.482
0 , 4.00499 , 4 , -0.00998593 , 185.304
0 , 4.00499 , 4 , -0.00998593 , 185.125
0 , 4.00499 , 4 , -0.00998593 , 184.947
0 , 4.00499 , 4 , -0.00998593 , 184.769
0 , 4.00499 , 4 , -0.00998593 , 184.591
0 , 4.00499 , 4 , -0.00998593 , 184.412
0 , 4.00499 , 4 , -0.00998593 , 184.234
0 , 4.00499 , 4 , -0.00998593 , 184.056
0 , 4.00499 , 4 , -0.00998593 , 183.878
0 , 4.00499 , 4 , -0.00998593 , 183.699
0 , 4.00499 , 4 , -0.00998593 , 183.521
0 , 4.00499 , 4 , -0.00998593 , 183.343
0 , 4.00499 , 4 , -0.00998593 , 183.165
0 , 4.00499 , 4 , -0.00998593 , 182.986
0 , 4.00499 , 4 , -0.00998593 , 182.808
0 , 4.00499 , 4 , -0.00998593 , 182.63
0 , 4.00499 , 4 , -0.00998593 , 182.452
0 , 4.00499 , 4 , -0.00998593 , 182.274
0 , 4.00499 , 4 , -0.00998593 , 182.095
0 , 4.00499 , 4 , -0.00998593 , 181.917
0 , 4.00499 , 4 , -0.00998593 , 181.739
0 , 4.00499 , 4 , -0.00998593 , 181.561
0 , 4.00499 , 4 , -0.00998593 , 181.382
0 , 4.00499 , 4 , -0.00998593 , 181.204
0 , 4.00499 , 4 , -0.00998593 , 181.026
0 , 4.00499 , 4 , -0.00998593 , 180.848
0 , 4.00499 , 4 , -0.00998593 , 180.669
0 , 4.00499 , 4 , -0.00998593 , 180.491
0 , 4.00499 , 4 , -0.00998593 , 180.313
0 , 4.00499 , 4 , -0.00998593 , 180.135
0 , 4.00499 , 4 , -0.00998593 , 179.956
0 , 4.00499 , 4 , -0.00998593 , 179.778
0 , 4.00499 , 4 , -0.00998593 , 179.6
0 , 4.00499 , 4 , -0.00998593 , 179.422
0 , 4.00499 , 4 , -0.00998593 , 179.243
0 , 4.00499 , 4 , -0.00998593 , 179.065
0 , 4.00499 , 4 , -0.00998593 , 178.887
0 , 4.00499 , 4 , -0.00998593 , 178.709
0 , 4.00499 , 4 , -0.00998593 , 178.53
0 , 4.00499 , 4 , -0.00998593 , 178.352
0 , 4.00499 , 4 , -0.00998593 , 178.174
0 , 4.00499 , 4 , -0.00998593 , 177.996
0 , 4.00499 , 4 , -0.00998593 , 177.817
0 , 4.00499 , 4 , -0.00998593 , 177.639
0 , 4.00499 , 4 , -0.00998593 , 177.461
0 , 4.00499 , 4 , -0.00998593 , 177.283
0 , 4.00499 , 4 , -0.00998593 , 177.105
0 , 4.00499 , 4 , -0.00998593 , 176.926
0 , 4.00499 , 4 , -0.00998593 , 176.748
0 , 4.00499 , 4 , -0.00998593 , 176.57
0 , 4.00499 , 4 , -0.00998593 , 176.392
0 , 4.00499 , 4 , -0.00998593 , 176.213
0 , 4.00499 , 4 , -0.00998593 , 176.035
0 , 4.00499 , 4 , -0.00998593 , 175.857
0 , 4.00499 , 4 , -0.00998593 , 175.679
0 , 4.00499 , 4 , -0.00998593 , 175.5
0 , 4.00499 , 4 , -0.00998593 , 175.322
0 , 4.00499 , 4 , -0.00998593 , 175.144
0 , 4.00499 , 4 , -0.00998593 , 174.966
0 , 4.00499 , 4 , -0.00998593 , 174.787
0 , 4.00499 , 4 , -0.00998593 , 174.609
0 , 4.00499 , 4 , -0.00998593 , 174.431
0 , 4.00499 , 4 , -0.00998593 , 174.253
0 , 4.00499 , 4 , -0.00998593 , 174.074
0 , 4.00499 , 4 , -0.00998593 , 173.896
0 , 4.00499 , 4 , -0.00998593 , 173.718
0 , 4.00499 , 4 , -0.00998593 , 173.54
0 , 4.00499 , 4 , -0.00998593 , 173.361
0 , 4.00499 , 4 , -0.00998593 , 173.183
0 , 4.00499 , 4 , -0.00998593 , 173.005
0 , 4.00499 , 4 , -0.00998593 , 172.827
0 , 4.00499 , 4 , -0.00998593 , 172.648
0 , 4.00499 , 4 , -0.00998593 , 172.47
0 , 4.00499 , 4 , -0.00998593 , 172.292
0 , 4.00499 , 4 , -0.00998593 , 172.114
0 , 4.00499 , 4 , -0.00998593 , 171.936
0 , 4.00499 , 4 , -0.00998593 , 171.757
0 , 4.00499 , 4 , -0.00998593 , 171.579
0 , 4.00499 , 4 , -0.00998593 , 171.401
0 , 4.00499 , 4 , -0.00998593 , 171.223
0 , 4.00499 , 4 , -0.00998593 , 171.044
0 , 4.00499 , 4 , -0.00998593 , 170.866
0 , 4.00499 , 4 , -0.00998593 , 170.688
0 , 4.00499 , 4 , -0.00998593 , 170.51
0 , 4.00499 , 4 , -0.00998593 , 170.331
0 , 4.00499 , 4 , -0.00998593 , 170.153
0 , 4.00499 , 4 , -0.00998593 , 169.975
0 , 4.00499 , 4 , -0.00998593 , 169.797
0 , 4.00499 , 4 , -0.00998593 , 169.618
0 , 4.00499 , 4 , -0.00998593 , 169.44
0 , 4.00499 , 4 , -0.00998593 , 169.262
0 , 4.00499 , 4 , -0.00998593 , 169.084
0 , 4.00499 , 4 , -0.00998593 , 168.905
0 , 4.00499 , 4 , -0.00998593 , 168.727
0 , 4.00499 , 4 , -0.00998593 , 168.549
0 , 4.00499 , 4 , -0.00998593 , 168.371
0 , 4.00499 , 4 , -0.00998593 , 168.192
0 , 4.00499 , 4 , -0.00998593 , 168.014
0 , 4.00499 , 4 , -0.00998593 , 167.836
0 , 4.00499 , 4 , -0.00998593 , 167.658
0 , 4.00499 , 4 , -0.00998593 , 167.48
0 , 4.00499 , 4 , -0.00998593 , 167.301
0 , 4.00499 , 4 , -0.00998593 , 167.123
0 , 4.00499 , 4 , -0.00998593 , 166.945
0 , 4.00499 , 4 , -0.00998593 , 166.767
0 , 4.00499 , 4 , -0.00998593 , 166.588
0 , 4.00499 , 4 , -0.00998593 , 166.41
0 , 4.00499 , 4 , -0.00998593 , 166.232
0 , 4.00499 , 4 , -0.00998593 , 166.054
0 , 4.00499 , 4 , -0.00998593 , 165.875
0 , 4.00499 , 4 , -0.00998593 , 165.697
0 , 4.00499 , 4 , -0.00998593 , 165.519
0 , 4.00499 , 4 , -0.00998593 , 165.341
0 , 4.00499 , 4 , -0.00998593 , 165.162
0 , 4.00499 , 4 , -0.00998593 , 164.984
0 , 4.00499 , 4 , -0.00998593 , 164.806
0 , 4.00499 , 4 , -0.00998593 , 164.628
0 , 4.00499 , 4 , -0.00998593 , 164.449
0 , 4.00499 , 4 , -0.00998593 , 164.271
0 , 4.00499 , 4 , -0.00998593 , 164.093
0 , 4.00499 , 4 , -0.00998593 , 163.915
0 , 4.00499 , 4 , -0.00998593 , 163.736
0 , 4.00499 , 4 , -0.00998593 , 163.558
0 , 4.00499 , 4 , -0.00998593 , 163.38
0 , 4.00499 , 4 , -0.00998593 , 163.202
0 , 4.00499 , 4 , -0.00998593 , 163.023
0 , 4.00499 , 4 , -0.00998593 , 162.845
0 , 4.00499 , 4 , -0.00998593 , 162.667
0 , 4.00499 , 4 , -0.00998593 , 162.489
0 , 4.00499 , 4 , -0.00998593 , 162.311
0 , 4.00499 , 4 , -0.00998593 , 162.132
0 , 4.00499 , 4 , -0.00998593 , 161.954
0 , 4.00499 , 4 , -0.00998593 , 161.776
0 , 4.00499 , 4 , -0.00998593 , 161.598
0 , 4.00499 , 4 , -0.00998593 , 161.419
0 , 4.00499 , 4 , -0.00998593 , 161.241
0 , 4.00499 , 4 , -0.00998593 , 161.063
0 , 4.00499 , 4 , -0.00998593 , 160.885
0 , 4.00499 , 4 , -0.00998593 , 160.706
0 , 4.00499 , 4 , -0.00998593 , 160.528
0 , 4.00499 , 4 , -0.00998593 , 160.35
0 , 4.00499 , 4 , -0.00998593 , 160.172
0 , 4.00499 , 4 , -0.00998593 , 159.993
0 , 4.00499 , 4 , -0.00998593 , 159.815
0 , 4.00499 , 4 , -0.00998593 , 159.637
0 , 4.00499 , 4 , -0.00998593 , 159.459
0 , 4.00499 , 4 , -0.00998593 , 159.28
0 , 4.00499 , 4 , -0.00998593 , 159.102
0 , 4.00499 , 4 , -0.00998593 , 158.924
0 , 4.00499 , 4 , -0.00998593 , 158.746
0 , 4.00499 , 4 , -0.00998593 , 158.567
0 , 4.00499 , 4 , -0.00998593 , 158.389
0 , 4.00499 , 4 , -0.00998593 , 158.211
0 , 4.00499 , 4 , -0.00998593 , 158.033
0 , 4.00499 , 4 , -0.00998593 , 157.855
0 , 4.00499 , 4 , -0.00998593 , 157.676
0 , 4.00499 , 4 , -0.00998593 , 157.498
0 , 4.00499 , 4 , -0.00998593 , 157.32
0 , 4.00499 , 4 , -0.00998593 , 157.142
0 , 4.00499 , 4 , -0.00998593 , 156.963
0 , 4.00499 , 4 , -0.00998593 , 156.785
0 , 4.00499 , 4 , -0.00998593 , 156.607
0 , 4.00499 , 4 , -0.00998593 , 156.429
0 , 4.00499 , 4 , -0.00998593 , 156.25
0 , 4.00499 , 4 , -0.00998593 , 156.072
0 , 4.00499 , 4 , -0.00998593 , 155.894
0 , 4.00499 , 4 , -0.00998593 , 155.716
0 , 4.00499 , 4 , -0.00998593 , 155.537
0 , 4.00499 , 4 , -0.00998593 , 155.359
0 , 4.00499 , 4 , -0.00998593 , 155.181
0 , 4.00499 , 4 , -0.00998593 , 155.003
0 , 4.00499 , 4 , -0.00998593 , 154.824
0 , 4.00499 , 4 , -0.00998593 , 154.646
0 , 4.00499 , 4 , -0.00998593 , 154.468
0 , 4.00499 , 4 , -0.00998593 , 154.29
0 , 4.00499 , 4 , -0.00998593 , 154.111
0 , 4.00499 , 4 , -0.00998593 , 153.933
0 , 4.00499 , 4 , -0.00998593 , 153.755
0 , 4.00499 , 4 , -0.00998593 , 153.577
0 , 4.00499 , 4 , -0.00998593 , 153.398
0 , 4.00499 , 4 , -0.00998593 , 153.22
0 , 4.00499 , 4 , -0.00998593 , 153.042
0 , 4.00499 , 4 , -0.00998593 , 152.864
0 , 4.00499 , 4 , -0.00998593 , 152.686
0 , 4.00499 , 4 , -0.00998593 , 152.507
0 , 4.00499 , 4 , -0.00998593 , 152.329
0 , 4.00499 , 4 , -0.00998593 , 152.151
0 , 4.00499 , 4 , -0.00998593 , 151.973
0 , 4.00499 , 4 , -0.00998593 , 151.794
0 , 4.00499 , 4 , -0.00998593 , 151.616
0 , 4.00499 , 4 , -0.00998593 , 151.438
0 , 4.00499 , 4 , -0.00998593 , 151.26
0 , 4.00499 , 4 , -0.00998593 , 151.081
0 , 4.00499 , 4 , -0.00998593 , 150.903
0 , 4.00499 , 4 , -0.00998593 , 150.725
0 , 4.00499 , 4 , -0.00998593 , 150.547
0 , 4.00499 , 4 , -0.00998593 , 150.368
0 , 4.00499 , 4 , -0.00998593 , 150.19
0 , 4.00499 , 4 , -0.00998593 , 150.012
0 , 4.00499 , 4 , -0.00998593 , 149.834
0 , 4.00499 , 4 , -0.00998593 , 149.655
0 , 4.00499 , 4 , -0.00998593 , 149.477
0 , 4.00499 , 4 , -0.00998593 , 149.299
0 , 4.00499 , 4 , -0.00998593 , 149.121
0 , 4.00499 , 4 , -0.00998593 , 148.942
0 , 4.00499 , 4 , -0.00998593 , 148.764
0 , 4.00499 , 4 , -0.00998593 , 148.586
0 , 4.00499 , 4 , -0.00998593 , 148.408
0 , 4.00499 , 4 , -0.00998593 , 148.229
0 , 4.00499 , 4 , -0.00998593 , 148.051
0 , 4.00499 , 4 , -0.00998593 , 147.873
0 , 4.00499 , 4 , -0.00998593 , 147.695
0 , 4.00499 , 4 , -0.00998593 , 147.517
0 , 4.00499 , 4 , -0.00998593 , 147.338
0 , 4.00499 , 4 , -0.00998593 , 147.16
0 , 4.00499 , 4 , -0.00998593 , 146.982
0 , 4.00499 , 4 , -0.00998593 , 146.804
0 , 4.00499 , 4 , -0.00998593 , 146.625
0 , 4.00499 , 4 , -0.00998593 , 146.447
0 , 4.00499 , 4 , -0.00998593 , 146.269
0 , 4.00499 , 4 , -0.00998593 , 146.091
0 , 4.00499 , 4 , -0.00998593 , 145.912
0 , 4.00499 , 4 , -0.00998593 , 145.734
0 , 4.00499 , 4 , -0.00998593 , 145.556
0 , 4.00499 , 4 , -0.00998593 , 145.378
0 , 4.00499 , 4 , -0.00998593 , 145.199
0 , 4.00499 , 4 , -0.00998593 , 145.021
0 , 4.00499 , 4 , -0.00998593 , 144.843
0 , 4.00499 , 4 , -0.00998593 , 144.665
0 , 4.00499 , 4 , -0.00998593 , 144.486
0 , 4.00499 , 4 , -0.00998593 , 144.308
0 , 4.00499 , 4 , -0.00998593 , 144.13
0 , 4.00499 , 4 , -0.00998593 , 143.952
0 , 4.00499 , 4 , -0.00998593 , 143.773
0 , 4.00499 , 4 , -0.00998593 , 143.595
0 , 4.00499 , 4 , -0.00998593 , 143.417
0 , 4.00499 , 4 , -0.00998593 , 143.239
0 , 4.00499 , 4 , -0.00998593 , 143.061
0 , 4.00499 , 4 , -0.00998593 , 142.882
0 , 4.00499 , 4 , -0.00998593 , 142.704
0 , 4.00499 , 4 , -0.00998593 , 142.526
0 , 4.00499 , 4 , -0.00998593 , 142.348
0 , 4.00499 , 4 , -0.00998593 , 142.169
0 , 4.00499 , 4 , -0.00998593 , 141.991
0 , 4.00499 , 4 , -0.00998593 , 141.813
0 , 4.00499 , 4 , -0.00998593 , 141.635
0 , 4.00499 , 4 , -0.00998593 , 141.456
0 , 4.00499 , 4 , -0.00998593 , 141.278
0 , 4.00499 , 4 , -0.00998593 , 141.1
0 , 4.00499 , 4 , -0.00998593 , 140.922
0 , 4.00499 , 4 , -0.00998593 , 140.743
0 , 4.00499 , 4 , -0.00998593 , 140.565
0 , 4.00499 , 4 , -0.00998593 , 140.387
0 , 4.00499 , 4 , -0.00998593 , 140.209
0 , 4.00499 , 4 , -0.00998593 , 140.03
0 , 4.00499 , 4 , -0.00998593 , 139.852
0 , 4.00499 , 4 , -0.00998593 , 139.674
0 , 4.00499 , 4 , -0.00998593 , 139.496
0 , 4.00499 , 4 , -0.00998593 , 139.317
0 , 4.00499 , 4 , -0.00998593 , 139.139
0 , 4.00499 , 4 , -0.00998593 , 138.961
0 , 4.00499 , 4 , -0.00998593 , 138.783
0 , 4.00499 , 4 , -0.00998593 , 138.604
0 , 4.00499 , 4 , -0.00998593 , 138.426
0 , 4.00499 , 4 , -0.00998593 , 138.248
0 , 4.00499 , 4 , -0.00998593 , 138.07
0 , 4.00499 , 4 , -0.00998593 , 137.892
0 , 4.00499 , 4 , -0.00998593 , 137.713
0 , 4.00499 , 4 , -0.00998593 , 137.535
0 , 4.00499 , 4 , -0.00998593 , 137.357
0 , 4.00499 , 4 , -0.00998593 , 137.179
0 , 4.00499 , 4 , -0.00998593 , 137
0 , 4.00499 , 4 , -0.00998593 , 136.822
0 , 4.00499 , 4 , -0.00998593 , 136.644
0 , 4.00499 , 4 , -0.00998593 , 136.466
0 , 4.00499 , 4 , -0.00998593 , 136.287
0 , 4.00499 , 4 , -0.00998593 , 136.109
0 , 4.00499 , 4 , -0.00998593 , 135.931
0 , 4.00499 , 4 , -0.00998593 , 135.753
0 , 4.00499 , 4 , -0.00998593 , 135.574
0 , 4.00499 , 4 , -0.00998593 , 135.396
0 , 4.00499 , 4 , -0.00998593 , 135.218
0 , 4.00499 , 4 , -0.00998593 , 135.04
0 , 4.00499 , 4 , -0.00998593 , 134.861
0 , 4.00499 , 4 , -0.00998593 , 134.683
0 , 4.00499 , 4 , -0.00998593 , 134.505
0 , 4.00499 , 4 , -0.00998593 , 134.327
0 , 4.00499 , 4 , -0.00998593 , 134.148
0 , 4.00499 , 4 , -0.00998593 , 133.97
0 , 4.00499 , 4 , -0.00998593 , 133.792
0 , 4.00499 , 4 , -0.00998593 , 133.614
0 , 4.00499 , 4 , -0.00998593 , 133.435
0 , 4.00499 , 4 , -0.00998593 , 133.257
0 , 4.00499 , 4 , -0.00998593 , 133.079
0 , 4.00499 , 4 , -0.00998593 , 132.901
0 , 4.00499 , 4 , -0.00998593 , 132.723
0 , 4.00499 , 4 , -0.00998593 , 132.544
0 , 4.00499 , 4 , -0.00998593 , 132.366
0 , 4.00499 , 4 , -0.00998593 , 132.188
0 , 4.00499 , 4 , -0.00998593 , 132.01
0 , 4.00499 , 4 , -0.00998593 , 131.831
0 , 4.00499 , 4 , -0.00998593 , 131.653
0 , 4.00499 , 4 , -0.00998593 , 131.475
0 , 4.00499 , 4 , -0.00998593 , 131.297
0 , 4.00499 , 4 , -0.00998593 , 131.118
0 , 4.00499 , 4 , -0.00998593 , 130.94
0 , 4.00499 , 4 , -0.00998593 , 130.762
0 , 4.00499 , 4 , -0.00998593 , 130.584
0 , 4.00499 , 4 , -0.00998593 , 130.405
0 , 4.00499 , 4 , -0.00998593 , 130.227
0 , 4.00499 , 4 , -0.00998593 , 130.049
0 , 4.00499 , 4 , -0.00998593 , 129.871
0 , 4.00499 , 4 , -0.00998593 , 129.692
0 , 4.00499 , 4 , -0.00998593 , 129.514
0 , 4.00499 , 4 , -0.00998593 , 129.336
0 , 4.00499 , 4 , -0.00998593 , 129.158
0 , 4.00499 , 4 , -0.00998593 , 128.979
0 , 4.00499 , 4 , -0.00998593 , 128.801
0 , 4.00499 , 4 , -0.00998593 , 128.623
0 , 4.00499 , 4 , -0.00998593 , 128.445
0 , 4.00499 , 4 , -0.00998593 , 128.267
0 , 4.00499 , 4 , -0.00998593 , 128.088
0 , 4.00499 , 4 , -0.00998593 , 127.91
0 , 4.00499 , 4 , -0.00998593 , 127.732
0 , 4.00499 , 4 , -0.00998593 , 127.554
0 , 4.00499 , 4 , -0.00998593 , 127.375
0 , 4.00499 , 4 , -0.00998593 , 127.197
0 , 4.00499 , 4 , -0.00998593 , 127.019
0 , 4.00499 , 4 , -0.00998593 , 126.841
0 , 4.00499 , 4 , -0.00998593 , 126.662
0 , 4.00499 , 4 , -0.00998593 , 126.484
0 , 4.00499 , 4 , -0.00998593 , 126.306
0 , 4.00499 , 4 , -0.00998593 , 126.128
0 , 4.00499 , 4 , -0.00998593 , 125.949
0 , 4.00499 , 4 , -0.00998593 , 125.771
0 , 4.00499 , 4 , -0.00998593 , 125.593
0 , 4.00499 , 4 , -0.00998593 , 125.415
0 , 4.00499 , 4 , -0.00998593 , 125.236
0 , 4.00499 , 4 , -0.00998593 , 125.058
0 , 4.00499 , 4 , -0.00998593 , 124.88
0 , 4.00499 , 4 , -0.00998593 , 124.702
0 , 4.00499 , 4 , -0.00998593 , 124.523
0 , 4.00499 , 4 , -0.00998593 , 124.345
0 , 4.00499 , 4 , -0.00998593 , 124.167
0 , 4.00499 , 4 , -0.00998593 , 123.989
0 , 4.00499 , 4 , -0.00998593 , 123.81
0 , 4.00499 , 4 , -0.00998593 , 123.632
0 , 4.00499 , 4 , -0.00998593 , 123.454
0 , 4.00499 , 4 , -0.00998593 , 123.276
0 , 4.00499 , 4 , -0.00998593 , 123.098
0 , 4.00499 , 4 , -0.00998593 , 122.919
0 , 4.00499 , 4 , -0.00998593 , 122.741
0 , 4.00499 , 4 , -0.00998593 , 122.563
0 , 4.00499 , 4 , -0.00998593 , 122.385
0 , 4.00499 , 4 , -0.00998593 , 122.206
0 , 4.00499 , 4 , -0.00998593 , 122.028
0 , 4.00499 , 4 , -0.00998593 , 121.85
0 , 4.00499 , 4 , -0.00998593 , 121.672
0 , 4.00499 , 4 , -0.00998593 , 121.493
0 , 4.00499 , 4 , -0.00998593 , 121.315
0 , 4.00499 , 4 , -0.00998593 , 121.137
0 , 4.00499 , 4 , -0.00998593 , 120.959
0 , 4.00499 , 4 , -0.00998593 , 120.78
0 , 4.00499 , 4 , -0.00998593 , 120.602
0 , 4.00499 , 4 , -0.00998593 , 120.424
0 , 4.00499 , 4 , -0.00998593 , 120.246
0 , 4.00499 , 4 , -0.00998593 , 120.067
0 , 4.00499 , 4 , -0.00998593 , 119.889
0 , 4.00499 , 4 , -0.00998593 , 119.711
0 , 4.00499 , 4 , -0.00998593 , 119.533
0 , 4.00499 , 4 , -0.00998593 , 119.354
0 , 4.00499 , 4 , -0.00998593 , 119.176
0 , 4.00499 , 4 , -0.00998593 , 118.998
0 , 4.00499 , 4 , -0.00998593 , 118.82
0 , 4.00499 , 4 , -0.00998593 , 118.642
0 , 4.00499 , 4 , -0.00998593 , 118.463
0 , 4.00499 , 4 , -0.00998593 , 118.285
0 , 4.00499 , 4 , -0.00998593 , 118.107
0 , 4.00499 , 4 , -0.00998593 , 117.929
0 , 4.00499 , 4 , -0.00998593 , 117.75
0 , 4.00499 , 4 , -0.00998593 , 117.572
0 , 4.00499 , 4 , -0.00998593 , 117.394
0 , 4.00499 , 4 , -0.00998593 , 117.216
0 , 4.00499 , 4 , -0.00998593 , 117.037
0 , 4.00499 , 4 , -0.00998593 , 116.859
0 , 4.00499 , 4 , -0.00998593 , 116.681
0 , 4.00499 , 4 , -0.00998593 , 116.503
0 , 4.00499 , 4 , -0.00998593 , 116.324
0 , 4.00499 , 4 , -0.00998593 , 116.146
0 , 4.00499 , 4 , -0.00998593 , 115.968
0 , 4.00499 , 4 , -0.00998593 , 115.79
0 , 4.00499 , 4 , -0.00998593 , 115.611
0 , 4.00499 , 4 , -0.00998593 , 115.433
0 , 4.00499 , 4 , -0.00998593 , 115.255
0 , 4.00499 , 4 , -0.00998593 , 115.077
0 , 4.00499 , 4 , -0.00998593 , 114.898
0 , 4.00499 , 4 , -0.00998593 , 114.72
0 , 4.00499 , 4 , -0.00998593 , 114.542
0 , 4.00499 , 4 , -0.00998593 , 114.364
0 , 4.00499 , 4 , -0.00998593 , 114.185
0 , 4.00499 , 4 , -0.00998593 , 114.007
0 , 4.00499 , 4 , -0.00998593 , 113.829
0 , 4.00499 , 4 , -0.00998593 , 113.651
0 , 4.00499 , 4 , -0.00998593 , 113.473
0 , 4.00499 , 4 , -0.00998593 , 113.294
0 , 4.00499 , 4 , -0.00998593 , 113.116
0 , 4.00499 , 4 , -0.00998593 , 112.938
0 , 4.00499 , 4 , -0.00998593 , 112.76
0 , 4.00499 , 4 , -0.00998593 , 112.581
0 , 4.00499 , 4 , -0.00998593 , 112.403
0 , 4.00499 , 4 , -0.00998593 , 112.225
0 , 4.00499 , 4 , -0.00998593 , 112.047
0 , 4.00499 , 4 , -0.00998593 , 111.868
0 , 4.00499 , 4 , -0.00998593 , 111.69
0 , 4.00499 , 4 , -0.00998593 , 111.512
0 , 4.00499 , 4 , -0.00998593 , 111.334
0 , 4.00499 , 4 , -0.00998593 , 111.155
0 , 4.00499 , 4 , -0.00998593 , 110.977
0 , 4.00499 , 4 , -0.00998593 , 110.799
0 , 4.00499 , 4 , -0.00998593 , 110.621
0 , 4.00499 , 4 , -0.00998593 , 110.442
0 , 4.00499 , 4 , -0.00998593 , 110.264
0 , 4.00499 , 4 , -0.00998593 , 110.086
0 , 4.00499 , 4 , -0.00998593 , 109.908
0 , 4.00499 , 4 , -0.00998593 , 109.729
0 , 4.00499 , 4 , -0.00998593 , 109.551
0 , 4.00499 , 4 , -0.00998593 , 109.373
0 , 4.00499 , 4 , -0.00998593 , 109.195
0 , 4.00499 , 4 , -0.00998593 , 109.016
0 , 4.00499 , 4 , -0.00998593 , 108.838
0 , 4.00499 , 4 , -0.00998593 , 108.66
0 , 4.00499 , 4 , -0.00998593 , 108.482
0 , 4.00499 , 4 , -0.00998593 , 108.304
0 , 4.00499 , 4 , -0.00998593 , 108.125
0 , 4.00499 , 4 , -0.00998593 , 107.947
0 , 4.00499 , 4 , -0.00998593 , 107.769
0 , 4.00499 , 4 , -0.00998593 , 107.591
0 , 4.00499 , 4 , -0.00998593 , 107.412
0 , 4.00499 , 4 , -0.00998593 , 107.234
0 , 4.00499 , 4 , -0.00998593 , 107.056
0 , 4.00499 , 4 , -0.00998593 , 106.878
0 , 4.00499 , 4 , -0.00998593 , 106.699
0 , 4.00499 , 4 , -0.00998593 , 106.521
0 , 4.00499 , 4 , -0.00998593 , 106.343
0 , 4.00499 , 4 , -0.00998593 , 106.165
0 , 4.00499 , 4 , -0.00998593 , 105.986
0 , 4.00499 , 4 , -0.00998593 , 105.808
0 , 4.00499 , 4 , -0.00998593 , 105.63
0 , 4.00499 , 4 , -0.00998593 , 105.452
0 , 4.00499 , 4 , -0.00998593 , 105.273
0 , 4.00499 , 4 , -0.00998593 , 105.095
0 , 4.00499 , 4 , -0.00998593 , 104.917
0 , 4.00499 , 4 , -0.00998593 , 104.739
0 , 4.00499 , 4 , -0.00998593 , 104.56
0 , 4.00499 , 4 , -0.00998593 , 104.382
0 , 4.00499 , 4 , -0.00998593 , 104.204
0 , 4.00499 , 4 , -0.00998593 , 104.026
0 , 4.00499 , 4 , -0.00998593 , 103.848
0 , 4.00499 , 4 , -0.00998593 , 103.669
0 , 4.00499 , 4 , -0.00998593 , 103.491
0 , 4.00499 , 4 , -0.00998593 , 103.313
0 , 4.00499 , 4 , -0.00998593 , 103.135
0 , 4.00499 , 4 , -0.00998593 , 102.956
0 , 4.00499 , 4 , -0.00998593 , 102.778
0 , 4.00499 , 4 , -0.00998593 , 102.6
0 , 4.00499 , 4 , -0.00998593 , 102.422
0 , 4.00499 , 4 , -0.00998593 , 102.243
0 , 4.00499 , 4 , -0.00998593 , 102.065
0 , 4.00499 , 4 , -0.00998593 , 101.887
0 , 4.00499 , 4 , -0.00998593 , 101.709
0 , 4.00499 , 4 , -0.00998593 , 101.53
0 , 4.00499 , 4 , -0.00998593 , 101.352
0 , 4.00499 , 4 , -0.00998593 , 101.174
0 , 4.00499 , 4 , -0.00998593 , 100.996
0 , 4.00499 , 4 , -0.00998593 , 100.817
0 , 4.00499 , 4 , -0.00998593 , 100.639
0 , 4.00499 , 4 , -0.00998593 , 100.461
0 , 4.00499 , 4 , -0.00998593 , 100.283
0 , 4.00499 , 4 , -0.00998593 , 100.104
0 , 4.00499 , 4 , -0.00998593 , 99.9262
0 , 4.00499 , 4 , -0.00998593 , 99.748
0 , 4.00499 , 4 , -0.00998593 , 99.5697
0 , 4.00499 , 4 , -0.00998593 , 99.3915
0 , 4.00499 , 4 , -0.00998593 , 99.2132
0 , 4.00499 , 4 , -0.00998593 , 99.035
0 , 4.00499 , 4 , -0.00998593 , 98.8568
0 , 4.00499 , 4 , -0.00998593 , 98.6785
0 , 4.00499 , 4 , -0.00998593 , 98.5003
0 , 4.00499 , 4 , -0.00998593 , 98.322
0 , 4.00499 , 4 , -0.00998593 , 98.1438
0 , 4.00499 , 4 , -0.00998593 , 97.9656
0 , 4.00499 , 4 , -0.00998593 , 97.7873
0 , 4.00499 , 4 , -0.00998593 , 97.6091
0 , 4.00499 , 4 , -0.00998593 , 97.4308
0 , 4.00499 , 4 , -0.00998593 , 97.2526
0 , 4.00499 , 4 , -0.00998593 , 97.0744
0 , 4.00499 , 4 , -0.00998593 , 96.8961
0 , 4.00499 , 4 , -0.00998593 , 96.7179
0 , 4.00499 , 4 , -0.00998593 , 96.5396
0 , 4.00499 , 4 , -0.00998593 , 96.3614
0 , 4.00499 , 4 , -0.00998593 , 96.1832
0 , 4.00499 , 4 , -0.00998593 , 96.0049
0 , 4.00499 , 4 , -0.00998593 , 95.8267
0 , 4.00499 , 4 , -0.00998593 , 95.6484
0 , 4.00499 , 4 , -0.00998593 , 95.4702
0 , 4.00499 , 4 , -0.00998593 , 95.2919
0 , 4.00499 , 4 , -0.00998593 , 95.1137
0 , 4.00499 , 4 , -0.00998593 , 94.9355
0 , 4.00499 , 4 , -0.00998593 , 94.7572
0 , 4.00499 , 4 , -0.00998593 , 94.579
0 , 4.00499 , 4 , -0.00998593 , 94.4007
0 , 4.00499 , 4 , -0.00998593 , 94.2225
0 , 4.00499 , 4 , -0.00998593 , 94.0443
0 , 4.00499 , 4 , -0.00998593 , 93.866
0 , 4.00499 , 4 , -0.00998593 , 93.6878
0 , 4.00499 , 4 , -0.00998593 , 93.5095
0 , 4.00499 , 4 , -0.00998593 , 93.3313
0 , 4.00499 , 4 , -0.00998593 , 93.1531
0 , 4.00499 , 4 , -0.00998593 , 92.9748
0 , 4.00499 , 4 , -0.00998593 , 92.7966
0 , 4.00499 , 4 , -0.00998593 , 92.6183
0 , 4.00499 , 4 , -0.00998593 , 92.4401
0 , 4.00499 , 4 , -0.00998593 , 92.2619
0 , 4.00499 , 4 , -0.00998593 , 92.0836
0 , 4.00499 , 4 , -0.00998593 , 91.9054
0 , 4.00499 , 4 , -0.00998593 , 91.7271
0 , 4.00499 , 4 , -0.00998593 , 91.5489
0 , 4.00499 , 4 , -0.00998593 , 91.3706
0 , 4.00499 , 4 , -0.00998593 , 91.1924
